(venv) mldl00@mldl00:~/cs529_neural_networks/Part_Spec_Conv$ python PS2C.py
Using TensorFlow backend.
The current partition being tested is partition 0.
Train on 13230 samples, validate on 6615 samples
Epoch 1/120
2018-11-13 20:24:21.773184: I tensorflow/core/common_runtime/gpu/gpu_device.cc:1411] Found device 0 with properties: 
name: GeForce GTX 1070 Ti major: 6 minor: 1 memoryClockRate(GHz): 1.683
pciBusID: 0000:02:00.0
totalMemory: 7.92GiB freeMemory: 7.70GiB
2018-11-13 20:24:21.773216: I tensorflow/core/common_runtime/gpu/gpu_device.cc:1490] Adding visible gpu devices: 0
2018-11-13 20:24:22.001416: I tensorflow/core/common_runtime/gpu/gpu_device.cc:971] Device interconnect StreamExecutor with strength 1 edge matrix:
2018-11-13 20:24:22.001470: I tensorflow/core/common_runtime/gpu/gpu_device.cc:977]      0 
2018-11-13 20:24:22.001479: I tensorflow/core/common_runtime/gpu/gpu_device.cc:990] 0:   N 
2018-11-13 20:24:22.001676: I tensorflow/core/common_runtime/gpu/gpu_device.cc:1103] Created TensorFlow device (/job:localhost/replica:0/task:0/device:GPU:0 with 7426 MB memory) -> physical GPU (device: 0, name: GeForce GTX 1070 Ti, pci bus id: 0000:02:00.0, compute capability: 6.1)
13230/13230 [==============================] - 21s 2ms/step - loss: 1.8077 - acc: 0.3707 - val_loss: 1.5719 - val_acc: 0.4266
Epoch 2/120
13230/13230 [==============================] - 18s 1ms/step - loss: 1.4770 - acc: 0.4773 - val_loss: 1.4401 - val_acc: 0.4866
Epoch 3/120
13230/13230 [==============================] - 18s 1ms/step - loss: 1.3528 - acc: 0.5269 - val_loss: 1.3129 - val_acc: 0.5232
Epoch 4/120
13230/13230 [==============================] - 18s 1ms/step - loss: 1.2723 - acc: 0.5570 - val_loss: 1.2760 - val_acc: 0.5457
Epoch 5/120
13230/13230 [==============================] - 18s 1ms/step - loss: 1.2027 - acc: 0.5808 - val_loss: 1.2757 - val_acc: 0.5451
Epoch 6/120
13230/13230 [==============================] - 18s 1ms/step - loss: 1.1583 - acc: 0.5965 - val_loss: 1.2379 - val_acc: 0.5590
Epoch 7/120
13230/13230 [==============================] - 18s 1ms/step - loss: 1.1136 - acc: 0.6143 - val_loss: 1.1373 - val_acc: 0.5932
Epoch 8/120
13230/13230 [==============================] - 18s 1ms/step - loss: 1.0757 - acc: 0.6292 - val_loss: 1.1460 - val_acc: 0.6029
Epoch 9/120
13230/13230 [==============================] - 18s 1ms/step - loss: 1.0437 - acc: 0.6417 - val_loss: 1.0712 - val_acc: 0.6334
Epoch 10/120
13230/13230 [==============================] - 18s 1ms/step - loss: 1.0169 - acc: 0.6553 - val_loss: 1.1031 - val_acc: 0.6076
Epoch 11/120
13230/13230 [==============================] - 18s 1ms/step - loss: 0.9821 - acc: 0.6655 - val_loss: 1.0933 - val_acc: 0.6219
Epoch 12/120
13230/13230 [==============================] - 18s 1ms/step - loss: 0.9645 - acc: 0.6726 - val_loss: 1.0550 - val_acc: 0.6355
Epoch 13/120
13230/13230 [==============================] - 18s 1ms/step - loss: 0.9379 - acc: 0.6830 - val_loss: 1.0435 - val_acc: 0.6355
Epoch 14/120
13230/13230 [==============================] - 18s 1ms/step - loss: 0.9173 - acc: 0.6890 - val_loss: 1.0290 - val_acc: 0.6574
Epoch 15/120
13230/13230 [==============================] - 18s 1ms/step - loss: 0.8941 - acc: 0.6948 - val_loss: 1.0370 - val_acc: 0.6405
Epoch 16/120
13230/13230 [==============================] - 18s 1ms/step - loss: 0.8746 - acc: 0.7023 - val_loss: 0.9735 - val_acc: 0.6653
Epoch 17/120
13230/13230 [==============================] - 18s 1ms/step - loss: 0.8534 - acc: 0.7133 - val_loss: 0.9524 - val_acc: 0.6639
Epoch 18/120
13230/13230 [==============================] - 18s 1ms/step - loss: 0.8304 - acc: 0.7193 - val_loss: 0.9537 - val_acc: 0.6765
Epoch 19/120
13230/13230 [==============================] - 18s 1ms/step - loss: 0.8187 - acc: 0.7267 - val_loss: 1.0461 - val_acc: 0.6393
Epoch 20/120
13230/13230 [==============================] - 18s 1ms/step - loss: 0.8057 - acc: 0.7314 - val_loss: 0.9632 - val_acc: 0.6700
Epoch 21/120
13230/13230 [==============================] - 18s 1ms/step - loss: 0.7834 - acc: 0.7415 - val_loss: 0.9462 - val_acc: 0.6741
Epoch 22/120
13230/13230 [==============================] - 18s 1ms/step - loss: 0.7677 - acc: 0.7402 - val_loss: 1.0100 - val_acc: 0.6517
Epoch 23/120
13230/13230 [==============================] - 18s 1ms/step - loss: 0.7574 - acc: 0.7478 - val_loss: 0.8897 - val_acc: 0.6942
Epoch 24/120
13230/13230 [==============================] - 18s 1ms/step - loss: 0.7445 - acc: 0.7505 - val_loss: 0.9031 - val_acc: 0.6869
Epoch 25/120
13230/13230 [==============================] - 18s 1ms/step - loss: 0.7240 - acc: 0.7577 - val_loss: 0.8830 - val_acc: 0.6992
Epoch 26/120
13230/13230 [==============================] - 18s 1ms/step - loss: 0.7157 - acc: 0.7625 - val_loss: 0.9499 - val_acc: 0.6791
Epoch 27/120
13230/13230 [==============================] - 18s 1ms/step - loss: 0.6982 - acc: 0.7655 - val_loss: 0.9184 - val_acc: 0.6789
Epoch 28/120
13230/13230 [==============================] - 18s 1ms/step - loss: 0.6882 - acc: 0.7681 - val_loss: 0.9208 - val_acc: 0.6807
Epoch 29/120
13230/13230 [==============================] - 18s 1ms/step - loss: 0.6726 - acc: 0.7762 - val_loss: 0.8754 - val_acc: 0.6983
Epoch 30/120
13230/13230 [==============================] - 18s 1ms/step - loss: 0.6605 - acc: 0.7798 - val_loss: 0.9293 - val_acc: 0.6975
Epoch 31/120
13230/13230 [==============================] - 18s 1ms/step - loss: 0.6476 - acc: 0.7842 - val_loss: 0.8869 - val_acc: 0.7073
Epoch 32/120
13230/13230 [==============================] - 18s 1ms/step - loss: 0.6342 - acc: 0.7902 - val_loss: 0.8200 - val_acc: 0.7176
Epoch 33/120
13230/13230 [==============================] - 18s 1ms/step - loss: 0.6222 - acc: 0.7927 - val_loss: 0.8805 - val_acc: 0.7036
Epoch 34/120
13230/13230 [==============================] - 18s 1ms/step - loss: 0.6158 - acc: 0.7958 - val_loss: 0.8394 - val_acc: 0.7179
Epoch 35/120
13230/13230 [==============================] - 18s 1ms/step - loss: 0.5979 - acc: 0.8010 - val_loss: 0.8361 - val_acc: 0.7153
Epoch 36/120
13230/13230 [==============================] - 18s 1ms/step - loss: 0.5877 - acc: 0.8029 - val_loss: 0.8248 - val_acc: 0.7209
Epoch 37/120
13230/13230 [==============================] - 18s 1ms/step - loss: 0.5785 - acc: 0.8065 - val_loss: 0.9358 - val_acc: 0.6860
Epoch 38/120
13230/13230 [==============================] - 18s 1ms/step - loss: 0.5636 - acc: 0.8111 - val_loss: 0.8890 - val_acc: 0.6989
Epoch 39/120
13230/13230 [==============================] - 18s 1ms/step - loss: 0.5510 - acc: 0.8141 - val_loss: 0.8487 - val_acc: 0.7175
Epoch 40/120
13230/13230 [==============================] - 18s 1ms/step - loss: 0.5473 - acc: 0.8169 - val_loss: 0.7902 - val_acc: 0.7361
Epoch 41/120
13230/13230 [==============================] - 18s 1ms/step - loss: 0.5304 - acc: 0.8246 - val_loss: 0.8406 - val_acc: 0.7215
Epoch 42/120
13230/13230 [==============================] - 18s 1ms/step - loss: 0.5218 - acc: 0.8228 - val_loss: 0.8087 - val_acc: 0.7327
Epoch 43/120
13230/13230 [==============================] - 18s 1ms/step - loss: 0.5161 - acc: 0.8283 - val_loss: 0.8546 - val_acc: 0.7200
Epoch 44/120
13230/13230 [==============================] - 18s 1ms/step - loss: 0.5063 - acc: 0.8315 - val_loss: 0.8788 - val_acc: 0.7075
Epoch 45/120
13230/13230 [==============================] - 18s 1ms/step - loss: 0.4902 - acc: 0.8374 - val_loss: 0.8599 - val_acc: 0.7147
Epoch 46/120
13230/13230 [==============================] - 18s 1ms/step - loss: 0.4834 - acc: 0.8399 - val_loss: 0.8761 - val_acc: 0.7125
Epoch 47/120
13230/13230 [==============================] - 18s 1ms/step - loss: 0.4691 - acc: 0.8428 - val_loss: 0.8245 - val_acc: 0.7205
Epoch 48/120
13230/13230 [==============================] - 18s 1ms/step - loss: 0.4646 - acc: 0.8476 - val_loss: 0.7955 - val_acc: 0.7386
Epoch 49/120
13230/13230 [==============================] - 18s 1ms/step - loss: 0.4539 - acc: 0.8491 - val_loss: 0.8400 - val_acc: 0.7270
Epoch 50/120
13230/13230 [==============================] - 18s 1ms/step - loss: 0.4470 - acc: 0.8504 - val_loss: 0.7935 - val_acc: 0.7392
Epoch 51/120
13230/13230 [==============================] - 18s 1ms/step - loss: 0.4353 - acc: 0.8568 - val_loss: 0.7791 - val_acc: 0.7463
Epoch 52/120
13230/13230 [==============================] - 18s 1ms/step - loss: 0.4200 - acc: 0.8627 - val_loss: 0.9805 - val_acc: 0.6978
Epoch 53/120
13230/13230 [==============================] - 18s 1ms/step - loss: 0.4130 - acc: 0.8658 - val_loss: 0.7852 - val_acc: 0.7432
Epoch 54/120
13230/13230 [==============================] - 18s 1ms/step - loss: 0.4047 - acc: 0.8698 - val_loss: 0.8401 - val_acc: 0.7270
Epoch 55/120
13230/13230 [==============================] - 18s 1ms/step - loss: 0.4005 - acc: 0.8717 - val_loss: 0.7654 - val_acc: 0.7560
Epoch 56/120
13230/13230 [==============================] - 18s 1ms/step - loss: 0.3912 - acc: 0.8720 - val_loss: 0.8683 - val_acc: 0.7261
Epoch 57/120
13230/13230 [==============================] - 18s 1ms/step - loss: 0.3812 - acc: 0.8756 - val_loss: 0.7902 - val_acc: 0.7492
Epoch 58/120
13230/13230 [==============================] - 18s 1ms/step - loss: 0.3701 - acc: 0.8796 - val_loss: 0.7771 - val_acc: 0.7516
Epoch 59/120
13230/13230 [==============================] - 18s 1ms/step - loss: 0.3634 - acc: 0.8841 - val_loss: 0.7582 - val_acc: 0.7525
Epoch 60/120
13230/13230 [==============================] - 18s 1ms/step - loss: 0.3531 - acc: 0.8853 - val_loss: 0.8698 - val_acc: 0.7276
Epoch 61/120
13230/13230 [==============================] - 18s 1ms/step - loss: 0.3475 - acc: 0.8857 - val_loss: 0.7740 - val_acc: 0.7492
Epoch 62/120
13230/13230 [==============================] - 18s 1ms/step - loss: 0.3419 - acc: 0.8886 - val_loss: 0.8383 - val_acc: 0.7344
Epoch 63/120
13230/13230 [==============================] - 18s 1ms/step - loss: 0.3307 - acc: 0.8923 - val_loss: 0.7488 - val_acc: 0.7586
Epoch 64/120
13230/13230 [==============================] - 18s 1ms/step - loss: 0.3180 - acc: 0.8977 - val_loss: 0.8288 - val_acc: 0.7403
Epoch 65/120
13230/13230 [==============================] - 18s 1ms/step - loss: 0.3179 - acc: 0.8985 - val_loss: 0.8601 - val_acc: 0.7317
Epoch 66/120
13230/13230 [==============================] - 18s 1ms/step - loss: 0.3069 - acc: 0.8984 - val_loss: 0.8465 - val_acc: 0.7420
Epoch 67/120
13230/13230 [==============================] - 18s 1ms/step - loss: 0.2995 - acc: 0.9032 - val_loss: 0.7954 - val_acc: 0.7548
Epoch 68/120
13230/13230 [==============================] - 18s 1ms/step - loss: 0.2958 - acc: 0.9060 - val_loss: 0.8878 - val_acc: 0.7359
Epoch 69/120
13230/13230 [==============================] - 18s 1ms/step - loss: 0.2863 - acc: 0.9045 - val_loss: 0.8447 - val_acc: 0.7432
Epoch 70/120
13230/13230 [==============================] - 18s 1ms/step - loss: 0.2771 - acc: 0.9107 - val_loss: 0.8778 - val_acc: 0.7365
Epoch 71/120
13230/13230 [==============================] - 18s 1ms/step - loss: 0.2650 - acc: 0.9147 - val_loss: 0.9522 - val_acc: 0.7206
Epoch 72/120
13230/13230 [==============================] - 18s 1ms/step - loss: 0.2684 - acc: 0.9106 - val_loss: 0.8513 - val_acc: 0.7466
Epoch 73/120
13230/13230 [==============================] - 18s 1ms/step - loss: 0.2585 - acc: 0.9176 - val_loss: 0.7717 - val_acc: 0.7637
Epoch 74/120
13230/13230 [==============================] - 18s 1ms/step - loss: 0.2506 - acc: 0.9187 - val_loss: 0.7814 - val_acc: 0.7605
Epoch 75/120
13230/13230 [==============================] - 18s 1ms/step - loss: 0.2459 - acc: 0.9215 - val_loss: 0.7801 - val_acc: 0.7575
Epoch 76/120
13230/13230 [==============================] - 18s 1ms/step - loss: 0.2355 - acc: 0.9244 - val_loss: 0.8575 - val_acc: 0.7543
Epoch 77/120
13230/13230 [==============================] - 18s 1ms/step - loss: 0.2332 - acc: 0.9252 - val_loss: 0.8769 - val_acc: 0.7448
Epoch 78/120
13230/13230 [==============================] - 18s 1ms/step - loss: 0.2266 - acc: 0.9285 - val_loss: 0.8258 - val_acc: 0.7645
Epoch 79/120
13230/13230 [==============================] - 18s 1ms/step - loss: 0.2181 - acc: 0.9301 - val_loss: 0.7998 - val_acc: 0.7599
Epoch 80/120
13230/13230 [==============================] - 18s 1ms/step - loss: 0.2151 - acc: 0.9321 - val_loss: 0.9083 - val_acc: 0.7469
Epoch 81/120
13230/13230 [==============================] - 18s 1ms/step - loss: 0.2115 - acc: 0.9345 - val_loss: 0.7848 - val_acc: 0.7681
Epoch 82/120
13230/13230 [==============================] - 18s 1ms/step - loss: 0.2061 - acc: 0.9347 - val_loss: 0.9631 - val_acc: 0.7404
Epoch 83/120
13230/13230 [==============================] - 18s 1ms/step - loss: 0.2009 - acc: 0.9359 - val_loss: 0.7883 - val_acc: 0.7696
Epoch 84/120
13230/13230 [==============================] - 18s 1ms/step - loss: 0.1920 - acc: 0.9398 - val_loss: 0.7947 - val_acc: 0.7726
Epoch 85/120
13230/13230 [==============================] - 18s 1ms/step - loss: 0.1873 - acc: 0.9402 - val_loss: 0.8374 - val_acc: 0.7556
Epoch 86/120
13230/13230 [==============================] - 18s 1ms/step - loss: 0.1841 - acc: 0.9420 - val_loss: 0.8516 - val_acc: 0.7571
Epoch 87/120
13230/13230 [==============================] - 18s 1ms/step - loss: 0.1780 - acc: 0.9466 - val_loss: 0.8058 - val_acc: 0.7720
Epoch 88/120
13230/13230 [==============================] - 18s 1ms/step - loss: 0.1749 - acc: 0.9432 - val_loss: 0.8491 - val_acc: 0.7598
Epoch 89/120
13230/13230 [==============================] - 18s 1ms/step - loss: 0.1689 - acc: 0.9493 - val_loss: 0.8223 - val_acc: 0.7636
Epoch 90/120
13230/13230 [==============================] - 18s 1ms/step - loss: 0.1664 - acc: 0.9483 - val_loss: 0.8206 - val_acc: 0.7711
Epoch 91/120
13230/13230 [==============================] - 18s 1ms/step - loss: 0.1583 - acc: 0.9525 - val_loss: 0.8140 - val_acc: 0.7698
Epoch 92/120
13230/13230 [==============================] - 18s 1ms/step - loss: 0.1590 - acc: 0.9507 - val_loss: 0.8126 - val_acc: 0.7717
Epoch 93/120
13230/13230 [==============================] - 18s 1ms/step - loss: 0.1508 - acc: 0.9543 - val_loss: 0.8215 - val_acc: 0.7684
Epoch 94/120
13230/13230 [==============================] - 18s 1ms/step - loss: 0.1530 - acc: 0.9527 - val_loss: 0.9117 - val_acc: 0.7575
Epoch 95/120
13230/13230 [==============================] - 18s 1ms/step - loss: 0.1429 - acc: 0.9571 - val_loss: 0.8607 - val_acc: 0.7704
Epoch 96/120
13230/13230 [==============================] - 18s 1ms/step - loss: 0.1387 - acc: 0.9577 - val_loss: 0.8484 - val_acc: 0.7725
Epoch 97/120
13230/13230 [==============================] - 18s 1ms/step - loss: 0.1362 - acc: 0.9588 - val_loss: 0.9041 - val_acc: 0.7608
Epoch 98/120
13230/13230 [==============================] - 18s 1ms/step - loss: 0.1318 - acc: 0.9604 - val_loss: 0.8558 - val_acc: 0.7690
Epoch 99/120
13230/13230 [==============================] - 18s 1ms/step - loss: 0.1282 - acc: 0.9630 - val_loss: 0.8220 - val_acc: 0.7708
Epoch 100/120
13230/13230 [==============================] - 18s 1ms/step - loss: 0.1243 - acc: 0.9624 - val_loss: 0.8567 - val_acc: 0.7708
Epoch 101/120
13230/13230 [==============================] - 18s 1ms/step - loss: 0.1214 - acc: 0.9647 - val_loss: 1.0516 - val_acc: 0.7503
Epoch 102/120
13230/13230 [==============================] - 18s 1ms/step - loss: 0.1200 - acc: 0.9646 - val_loss: 0.8903 - val_acc: 0.7723
Epoch 103/120
13230/13230 [==============================] - 18s 1ms/step - loss: 0.1113 - acc: 0.9664 - val_loss: 0.8850 - val_acc: 0.7758
Epoch 104/120
13230/13230 [==============================] - 18s 1ms/step - loss: 0.1163 - acc: 0.9642 - val_loss: 0.9074 - val_acc: 0.7658
Epoch 105/120
13230/13230 [==============================] - 18s 1ms/step - loss: 0.1102 - acc: 0.9675 - val_loss: 0.9340 - val_acc: 0.7695
Epoch 106/120
13230/13230 [==============================] - 18s 1ms/step - loss: 0.1046 - acc: 0.9689 - val_loss: 0.9413 - val_acc: 0.7622
Epoch 107/120
13230/13230 [==============================] - 18s 1ms/step - loss: 0.1061 - acc: 0.9705 - val_loss: 1.0486 - val_acc: 0.7501
Epoch 108/120
13230/13230 [==============================] - 18s 1ms/step - loss: 0.1034 - acc: 0.9686 - val_loss: 0.8910 - val_acc: 0.7740
Epoch 109/120
13230/13230 [==============================] - 18s 1ms/step - loss: 0.1011 - acc: 0.9712 - val_loss: 0.9242 - val_acc: 0.7734
Epoch 110/120
13230/13230 [==============================] - 18s 1ms/step - loss: 0.0993 - acc: 0.9695 - val_loss: 0.8740 - val_acc: 0.7782
Epoch 111/120
13230/13230 [==============================] - 18s 1ms/step - loss: 0.0957 - acc: 0.9725 - val_loss: 0.9907 - val_acc: 0.7553
Epoch 112/120
13230/13230 [==============================] - 18s 1ms/step - loss: 0.0931 - acc: 0.9732 - val_loss: 0.9171 - val_acc: 0.7776
Epoch 113/120
13230/13230 [==============================] - 18s 1ms/step - loss: 0.0873 - acc: 0.9757 - val_loss: 0.9144 - val_acc: 0.7758
Epoch 114/120
13230/13230 [==============================] - 18s 1ms/step - loss: 0.0906 - acc: 0.9729 - val_loss: 0.9473 - val_acc: 0.7737
Epoch 115/120
13230/13230 [==============================] - 18s 1ms/step - loss: 0.0870 - acc: 0.9755 - val_loss: 0.9390 - val_acc: 0.7725
Epoch 116/120
13230/13230 [==============================] - 18s 1ms/step - loss: 0.0839 - acc: 0.9749 - val_loss: 0.9008 - val_acc: 0.7813
Epoch 117/120
13230/13230 [==============================] - 18s 1ms/step - loss: 0.0827 - acc: 0.9763 - val_loss: 0.9330 - val_acc: 0.7745
Epoch 118/120
13230/13230 [==============================] - 18s 1ms/step - loss: 0.0788 - acc: 0.9775 - val_loss: 0.9974 - val_acc: 0.7699
Epoch 119/120
13230/13230 [==============================] - 18s 1ms/step - loss: 0.0766 - acc: 0.9787 - val_loss: 1.0412 - val_acc: 0.7607
Epoch 120/120
13230/13230 [==============================] - 18s 1ms/step - loss: 0.0750 - acc: 0.9791 - val_loss: 0.9529 - val_acc: 0.7707
The accuracy for the segments of this partition is:  0.7706727135298563
The accuracy for this partition is:  0.8933333333333333
The current partition being tested is partition 1.
Train on 13230 samples, validate on 6615 samples
Epoch 1/120
13230/13230 [==============================] - 19s 1ms/step - loss: 1.8242 - acc: 0.3587 - val_loss: 1.5785 - val_acc: 0.4494
Epoch 2/120
13230/13230 [==============================] - 18s 1ms/step - loss: 1.4844 - acc: 0.4727 - val_loss: 1.4001 - val_acc: 0.5002
Epoch 3/120
13230/13230 [==============================] - 18s 1ms/step - loss: 1.3575 - acc: 0.5203 - val_loss: 1.3414 - val_acc: 0.5244
Epoch 4/120
13230/13230 [==============================] - 18s 1ms/step - loss: 1.2684 - acc: 0.5511 - val_loss: 1.2303 - val_acc: 0.5705
Epoch 5/120
13230/13230 [==============================] - 18s 1ms/step - loss: 1.2056 - acc: 0.5778 - val_loss: 1.1655 - val_acc: 0.5956
Epoch 6/120
13230/13230 [==============================] - 18s 1ms/step - loss: 1.1549 - acc: 0.5990 - val_loss: 1.1618 - val_acc: 0.6095
Epoch 7/120
13230/13230 [==============================] - 18s 1ms/step - loss: 1.1200 - acc: 0.6115 - val_loss: 1.1358 - val_acc: 0.6038
Epoch 8/120
13230/13230 [==============================] - 18s 1ms/step - loss: 1.0788 - acc: 0.6265 - val_loss: 1.0726 - val_acc: 0.6328
Epoch 9/120
13230/13230 [==============================] - 18s 1ms/step - loss: 1.0510 - acc: 0.6355 - val_loss: 1.0848 - val_acc: 0.6289
Epoch 10/120
13230/13230 [==============================] - 18s 1ms/step - loss: 1.0201 - acc: 0.6481 - val_loss: 1.0922 - val_acc: 0.6317
Epoch 11/120
13230/13230 [==============================] - 18s 1ms/step - loss: 0.9946 - acc: 0.6553 - val_loss: 1.0395 - val_acc: 0.6351
Epoch 12/120
13230/13230 [==============================] - 18s 1ms/step - loss: 0.9746 - acc: 0.6620 - val_loss: 1.0260 - val_acc: 0.6487
Epoch 13/120
13230/13230 [==============================] - 18s 1ms/step - loss: 0.9454 - acc: 0.6778 - val_loss: 1.0030 - val_acc: 0.6499
Epoch 14/120
13230/13230 [==============================] - 18s 1ms/step - loss: 0.9295 - acc: 0.6828 - val_loss: 0.9685 - val_acc: 0.6691
Epoch 15/120
13230/13230 [==============================] - 18s 1ms/step - loss: 0.9025 - acc: 0.6905 - val_loss: 0.9585 - val_acc: 0.6727
Epoch 16/120
13230/13230 [==============================] - 18s 1ms/step - loss: 0.8908 - acc: 0.6967 - val_loss: 0.9306 - val_acc: 0.6845
Epoch 17/120
13230/13230 [==============================] - 18s 1ms/step - loss: 0.8684 - acc: 0.7048 - val_loss: 0.9228 - val_acc: 0.6824
Epoch 18/120
13230/13230 [==============================] - 18s 1ms/step - loss: 0.8469 - acc: 0.7108 - val_loss: 0.9091 - val_acc: 0.6960
Epoch 19/120
13230/13230 [==============================] - 18s 1ms/step - loss: 0.8297 - acc: 0.7183 - val_loss: 0.9165 - val_acc: 0.6854
Epoch 20/120
13230/13230 [==============================] - 18s 1ms/step - loss: 0.8212 - acc: 0.7190 - val_loss: 1.0520 - val_acc: 0.6382
Epoch 21/120
13230/13230 [==============================] - 18s 1ms/step - loss: 0.8027 - acc: 0.7260 - val_loss: 0.9229 - val_acc: 0.6875
Epoch 22/120
13230/13230 [==============================] - 18s 1ms/step - loss: 0.7891 - acc: 0.7351 - val_loss: 0.8977 - val_acc: 0.6948
Epoch 23/120
13230/13230 [==============================] - 18s 1ms/step - loss: 0.7802 - acc: 0.7323 - val_loss: 0.8665 - val_acc: 0.7078
Epoch 24/120
13230/13230 [==============================] - 18s 1ms/step - loss: 0.7598 - acc: 0.7430 - val_loss: 0.8792 - val_acc: 0.6998
Epoch 25/120
13230/13230 [==============================] - 18s 1ms/step - loss: 0.7380 - acc: 0.7531 - val_loss: 0.8596 - val_acc: 0.7101
Epoch 26/120
13230/13230 [==============================] - 18s 1ms/step - loss: 0.7248 - acc: 0.7546 - val_loss: 0.9158 - val_acc: 0.6878
Epoch 27/120
13230/13230 [==============================] - 18s 1ms/step - loss: 0.7144 - acc: 0.7582 - val_loss: 0.8610 - val_acc: 0.7064
Epoch 28/120
13230/13230 [==============================] - 18s 1ms/step - loss: 0.6990 - acc: 0.7621 - val_loss: 0.8730 - val_acc: 0.7019
Epoch 29/120
13230/13230 [==============================] - 18s 1ms/step - loss: 0.6851 - acc: 0.7690 - val_loss: 0.9366 - val_acc: 0.6812
Epoch 30/120
13230/13230 [==============================] - 18s 1ms/step - loss: 0.6745 - acc: 0.7732 - val_loss: 0.8016 - val_acc: 0.7321
Epoch 31/120
13230/13230 [==============================] - 18s 1ms/step - loss: 0.6620 - acc: 0.7785 - val_loss: 0.9344 - val_acc: 0.6797
Epoch 32/120
13230/13230 [==============================] - 18s 1ms/step - loss: 0.6439 - acc: 0.7823 - val_loss: 0.8170 - val_acc: 0.7306
Epoch 33/120
13230/13230 [==============================] - 18s 1ms/step - loss: 0.6313 - acc: 0.7871 - val_loss: 0.8334 - val_acc: 0.7238
Epoch 34/120
13230/13230 [==============================] - 18s 1ms/step - loss: 0.6199 - acc: 0.7882 - val_loss: 1.0286 - val_acc: 0.6562
Epoch 35/120
13230/13230 [==============================] - 18s 1ms/step - loss: 0.6105 - acc: 0.7954 - val_loss: 0.7697 - val_acc: 0.7430
Epoch 36/120
13230/13230 [==============================] - 18s 1ms/step - loss: 0.5961 - acc: 0.7983 - val_loss: 0.8088 - val_acc: 0.7329
Epoch 37/120
13230/13230 [==============================] - 18s 1ms/step - loss: 0.5878 - acc: 0.8023 - val_loss: 0.8043 - val_acc: 0.7314
Epoch 38/120
13230/13230 [==============================] - 18s 1ms/step - loss: 0.5739 - acc: 0.8076 - val_loss: 0.8546 - val_acc: 0.7196
Epoch 39/120
13230/13230 [==============================] - 18s 1ms/step - loss: 0.5609 - acc: 0.8146 - val_loss: 0.9233 - val_acc: 0.7005
Epoch 40/120
13230/13230 [==============================] - 18s 1ms/step - loss: 0.5511 - acc: 0.8156 - val_loss: 0.7721 - val_acc: 0.7441
Epoch 41/120
13230/13230 [==============================] - 18s 1ms/step - loss: 0.5430 - acc: 0.8184 - val_loss: 0.8674 - val_acc: 0.7150
Epoch 42/120
13230/13230 [==============================] - 18s 1ms/step - loss: 0.5317 - acc: 0.8245 - val_loss: 0.8640 - val_acc: 0.7143
Epoch 43/120
13230/13230 [==============================] - 18s 1ms/step - loss: 0.5210 - acc: 0.8266 - val_loss: 0.7903 - val_acc: 0.7354
Epoch 44/120
13230/13230 [==============================] - 18s 1ms/step - loss: 0.5022 - acc: 0.8329 - val_loss: 0.8426 - val_acc: 0.7226
Epoch 45/120
13230/13230 [==============================] - 18s 1ms/step - loss: 0.5006 - acc: 0.8359 - val_loss: 0.7631 - val_acc: 0.7486
Epoch 46/120
13230/13230 [==============================] - 18s 1ms/step - loss: 0.4892 - acc: 0.8382 - val_loss: 0.7752 - val_acc: 0.7480
Epoch 47/120
13230/13230 [==============================] - 18s 1ms/step - loss: 0.4769 - acc: 0.8423 - val_loss: 0.9254 - val_acc: 0.7060
Epoch 48/120
13230/13230 [==============================] - 18s 1ms/step - loss: 0.4724 - acc: 0.8409 - val_loss: 0.7685 - val_acc: 0.7530
Epoch 49/120
13230/13230 [==============================] - 18s 1ms/step - loss: 0.4579 - acc: 0.8454 - val_loss: 0.7316 - val_acc: 0.7664
Epoch 50/120
13230/13230 [==============================] - 18s 1ms/step - loss: 0.4447 - acc: 0.8513 - val_loss: 0.7568 - val_acc: 0.7577
Epoch 51/120
13230/13230 [==============================] - 18s 1ms/step - loss: 0.4342 - acc: 0.8574 - val_loss: 0.8068 - val_acc: 0.7457
Epoch 52/120
13230/13230 [==============================] - 18s 1ms/step - loss: 0.4288 - acc: 0.8580 - val_loss: 0.7614 - val_acc: 0.7501
Epoch 53/120
13230/13230 [==============================] - 18s 1ms/step - loss: 0.4157 - acc: 0.8631 - val_loss: 0.7570 - val_acc: 0.7537
Epoch 54/120
13230/13230 [==============================] - 18s 1ms/step - loss: 0.4135 - acc: 0.8625 - val_loss: 0.7396 - val_acc: 0.7673
Epoch 55/120
13230/13230 [==============================] - 18s 1ms/step - loss: 0.4019 - acc: 0.8683 - val_loss: 0.7941 - val_acc: 0.7468
Epoch 56/120
13230/13230 [==============================] - 18s 1ms/step - loss: 0.3955 - acc: 0.8723 - val_loss: 0.8054 - val_acc: 0.7456
Epoch 57/120
13230/13230 [==============================] - 18s 1ms/step - loss: 0.3843 - acc: 0.8729 - val_loss: 0.8364 - val_acc: 0.7398
Epoch 58/120
13230/13230 [==============================] - 18s 1ms/step - loss: 0.3769 - acc: 0.8752 - val_loss: 0.7638 - val_acc: 0.7669
Epoch 59/120
13230/13230 [==============================] - 18s 1ms/step - loss: 0.3682 - acc: 0.8807 - val_loss: 0.7447 - val_acc: 0.7655
Epoch 60/120
13230/13230 [==============================] - 18s 1ms/step - loss: 0.3618 - acc: 0.8816 - val_loss: 0.7611 - val_acc: 0.7568
Epoch 61/120
13230/13230 [==============================] - 18s 1ms/step - loss: 0.3529 - acc: 0.8833 - val_loss: 0.7590 - val_acc: 0.7667
Epoch 62/120
13230/13230 [==============================] - 18s 1ms/step - loss: 0.3426 - acc: 0.8899 - val_loss: 0.7867 - val_acc: 0.7625
Epoch 63/120
13230/13230 [==============================] - 18s 1ms/step - loss: 0.3349 - acc: 0.8924 - val_loss: 0.8280 - val_acc: 0.7494
Epoch 64/120
13230/13230 [==============================] - 18s 1ms/step - loss: 0.3306 - acc: 0.8952 - val_loss: 0.7663 - val_acc: 0.7628
Epoch 65/120
13230/13230 [==============================] - 18s 1ms/step - loss: 0.3165 - acc: 0.9004 - val_loss: 0.8125 - val_acc: 0.7521
Epoch 66/120
13230/13230 [==============================] - 18s 1ms/step - loss: 0.3132 - acc: 0.8991 - val_loss: 0.8892 - val_acc: 0.7291
Epoch 67/120
13230/13230 [==============================] - 18s 1ms/step - loss: 0.3063 - acc: 0.9034 - val_loss: 0.7812 - val_acc: 0.7599
Epoch 68/120
13230/13230 [==============================] - 18s 1ms/step - loss: 0.2944 - acc: 0.9054 - val_loss: 0.7338 - val_acc: 0.7779
Epoch 69/120
13230/13230 [==============================] - 18s 1ms/step - loss: 0.2882 - acc: 0.9086 - val_loss: 0.8535 - val_acc: 0.7486
Epoch 70/120
13230/13230 [==============================] - 18s 1ms/step - loss: 0.2814 - acc: 0.9101 - val_loss: 0.7523 - val_acc: 0.7690
Epoch 71/120
13230/13230 [==============================] - 18s 1ms/step - loss: 0.2766 - acc: 0.9106 - val_loss: 0.9144 - val_acc: 0.7401
Epoch 72/120
13230/13230 [==============================] - 18s 1ms/step - loss: 0.2652 - acc: 0.9162 - val_loss: 0.7489 - val_acc: 0.7828
Epoch 73/120
13230/13230 [==============================] - 18s 1ms/step - loss: 0.2649 - acc: 0.9155 - val_loss: 0.9194 - val_acc: 0.7423
Epoch 74/120
13230/13230 [==============================] - 18s 1ms/step - loss: 0.2543 - acc: 0.9183 - val_loss: 0.7826 - val_acc: 0.7658
Epoch 75/120
13230/13230 [==============================] - 18s 1ms/step - loss: 0.2465 - acc: 0.9231 - val_loss: 0.8442 - val_acc: 0.7590
Epoch 76/120
13230/13230 [==============================] - 18s 1ms/step - loss: 0.2412 - acc: 0.9245 - val_loss: 0.7923 - val_acc: 0.7692
Epoch 77/120
13230/13230 [==============================] - 18s 1ms/step - loss: 0.2387 - acc: 0.9238 - val_loss: 0.8515 - val_acc: 0.7578
Epoch 78/120
13230/13230 [==============================] - 18s 1ms/step - loss: 0.2337 - acc: 0.9253 - val_loss: 0.7978 - val_acc: 0.7711
Epoch 79/120
13230/13230 [==============================] - 18s 1ms/step - loss: 0.2260 - acc: 0.9277 - val_loss: 0.7792 - val_acc: 0.7695
Epoch 80/120
13230/13230 [==============================] - 18s 1ms/step - loss: 0.2196 - acc: 0.9305 - val_loss: 0.8175 - val_acc: 0.7651
Epoch 81/120
13230/13230 [==============================] - 18s 1ms/step - loss: 0.2142 - acc: 0.9349 - val_loss: 0.7834 - val_acc: 0.7732
Epoch 82/120
13230/13230 [==============================] - 18s 1ms/step - loss: 0.2098 - acc: 0.9358 - val_loss: 0.9076 - val_acc: 0.7575
Epoch 83/120
13230/13230 [==============================] - 18s 1ms/step - loss: 0.2045 - acc: 0.9382 - val_loss: 0.7875 - val_acc: 0.7752
Epoch 84/120
13230/13230 [==============================] - 18s 1ms/step - loss: 0.1962 - acc: 0.9414 - val_loss: 0.8669 - val_acc: 0.7607
Epoch 85/120
13230/13230 [==============================] - 18s 1ms/step - loss: 0.1946 - acc: 0.9420 - val_loss: 0.7894 - val_acc: 0.7755
Epoch 86/120
13230/13230 [==============================] - 18s 1ms/step - loss: 0.1907 - acc: 0.9428 - val_loss: 0.8511 - val_acc: 0.7720
Epoch 87/120
13230/13230 [==============================] - 18s 1ms/step - loss: 0.1839 - acc: 0.9441 - val_loss: 0.8565 - val_acc: 0.7634
Epoch 88/120
13230/13230 [==============================] - 18s 1ms/step - loss: 0.1791 - acc: 0.9435 - val_loss: 0.8767 - val_acc: 0.7592
Epoch 89/120
13230/13230 [==============================] - 18s 1ms/step - loss: 0.1761 - acc: 0.9473 - val_loss: 0.8180 - val_acc: 0.7787
Epoch 90/120
13230/13230 [==============================] - 18s 1ms/step - loss: 0.1676 - acc: 0.9485 - val_loss: 0.8526 - val_acc: 0.7766
Epoch 91/120
13230/13230 [==============================] - 18s 1ms/step - loss: 0.1639 - acc: 0.9511 - val_loss: 0.8901 - val_acc: 0.7624
Epoch 92/120
13230/13230 [==============================] - 18s 1ms/step - loss: 0.1626 - acc: 0.9512 - val_loss: 0.8095 - val_acc: 0.7802
Epoch 93/120
13230/13230 [==============================] - 18s 1ms/step - loss: 0.1568 - acc: 0.9520 - val_loss: 0.7790 - val_acc: 0.7956
Epoch 94/120
13230/13230 [==============================] - 18s 1ms/step - loss: 0.1533 - acc: 0.9540 - val_loss: 0.8738 - val_acc: 0.7705
Epoch 95/120
13230/13230 [==============================] - 18s 1ms/step - loss: 0.1474 - acc: 0.9584 - val_loss: 0.9246 - val_acc: 0.7642
Epoch 96/120
13230/13230 [==============================] - 18s 1ms/step - loss: 0.1423 - acc: 0.9594 - val_loss: 0.8630 - val_acc: 0.7784
Epoch 97/120
13230/13230 [==============================] - 18s 1ms/step - loss: 0.1415 - acc: 0.9601 - val_loss: 0.9065 - val_acc: 0.7711
Epoch 98/120
13230/13230 [==============================] - 18s 1ms/step - loss: 0.1357 - acc: 0.9593 - val_loss: 0.8833 - val_acc: 0.7763
Epoch 99/120
13230/13230 [==============================] - 18s 1ms/step - loss: 0.1346 - acc: 0.9605 - val_loss: 0.8988 - val_acc: 0.7701
Epoch 100/120
13230/13230 [==============================] - 18s 1ms/step - loss: 0.1307 - acc: 0.9618 - val_loss: 1.0567 - val_acc: 0.7391
Epoch 101/120
13230/13230 [==============================] - 18s 1ms/step - loss: 0.1254 - acc: 0.9617 - val_loss: 0.8874 - val_acc: 0.7802
Epoch 102/120
13230/13230 [==============================] - 18s 1ms/step - loss: 0.1197 - acc: 0.9660 - val_loss: 0.8678 - val_acc: 0.7828
Epoch 103/120
13230/13230 [==============================] - 18s 1ms/step - loss: 0.1191 - acc: 0.9639 - val_loss: 0.8315 - val_acc: 0.7885
Epoch 104/120
13230/13230 [==============================] - 18s 1ms/step - loss: 0.1167 - acc: 0.9663 - val_loss: 1.1399 - val_acc: 0.7268
Epoch 105/120
13230/13230 [==============================] - 18s 1ms/step - loss: 0.1138 - acc: 0.9670 - val_loss: 0.8815 - val_acc: 0.7791
Epoch 106/120
13230/13230 [==============================] - 18s 1ms/step - loss: 0.1125 - acc: 0.9659 - val_loss: 0.9108 - val_acc: 0.7726
Epoch 107/120
13230/13230 [==============================] - 18s 1ms/step - loss: 0.1089 - acc: 0.9668 - val_loss: 0.9090 - val_acc: 0.7785
Epoch 108/120
13230/13230 [==============================] - 18s 1ms/step - loss: 0.1052 - acc: 0.9699 - val_loss: 0.9400 - val_acc: 0.7760
Epoch 109/120
13230/13230 [==============================] - 18s 1ms/step - loss: 0.1034 - acc: 0.9711 - val_loss: 0.9348 - val_acc: 0.7772
Epoch 110/120
13230/13230 [==============================] - 18s 1ms/step - loss: 0.0994 - acc: 0.9729 - val_loss: 0.8431 - val_acc: 0.7950
Epoch 111/120
13230/13230 [==============================] - 18s 1ms/step - loss: 0.0958 - acc: 0.9718 - val_loss: 0.9475 - val_acc: 0.7726
Epoch 112/120
13230/13230 [==============================] - 18s 1ms/step - loss: 0.0961 - acc: 0.9725 - val_loss: 0.8936 - val_acc: 0.7870
Epoch 113/120
13230/13230 [==============================] - 18s 1ms/step - loss: 0.0960 - acc: 0.9738 - val_loss: 0.9702 - val_acc: 0.7816
Epoch 114/120
13230/13230 [==============================] - 18s 1ms/step - loss: 0.0926 - acc: 0.9732 - val_loss: 0.9640 - val_acc: 0.7717
Epoch 115/120
13230/13230 [==============================] - 18s 1ms/step - loss: 0.0882 - acc: 0.9751 - val_loss: 0.8986 - val_acc: 0.7891
Epoch 116/120
13230/13230 [==============================] - 18s 1ms/step - loss: 0.0891 - acc: 0.9754 - val_loss: 1.0326 - val_acc: 0.7707
Epoch 117/120
13230/13230 [==============================] - 18s 1ms/step - loss: 0.0866 - acc: 0.9763 - val_loss: 0.9855 - val_acc: 0.7740
Epoch 118/120
13230/13230 [==============================] - 18s 1ms/step - loss: 0.0842 - acc: 0.9767 - val_loss: 0.9906 - val_acc: 0.7695
Epoch 119/120
13230/13230 [==============================] - 18s 1ms/step - loss: 0.0806 - acc: 0.9776 - val_loss: 1.0453 - val_acc: 0.7610
Epoch 120/120
13230/13230 [==============================] - 18s 1ms/step - loss: 0.0795 - acc: 0.9788 - val_loss: 0.9125 - val_acc: 0.7912
The accuracy for the segments of this partition is:  0.7912320483749056
The accuracy for this partition is:  0.8844444444444445
The current partition being tested is partition 2.
Train on 13230 samples, validate on 6615 samples
Epoch 1/120
13230/13230 [==============================] - 19s 1ms/step - loss: 1.8240 - acc: 0.3581 - val_loss: 1.5490 - val_acc: 0.4517
Epoch 2/120
13230/13230 [==============================] - 18s 1ms/step - loss: 1.4930 - acc: 0.4661 - val_loss: 1.3831 - val_acc: 0.5249
Epoch 3/120
13230/13230 [==============================] - 18s 1ms/step - loss: 1.3638 - acc: 0.5152 - val_loss: 1.3430 - val_acc: 0.5339
Epoch 4/120
13230/13230 [==============================] - 18s 1ms/step - loss: 1.2863 - acc: 0.5481 - val_loss: 1.2863 - val_acc: 0.5525
Epoch 5/120
13230/13230 [==============================] - 18s 1ms/step - loss: 1.2240 - acc: 0.5673 - val_loss: 1.2136 - val_acc: 0.5680
Epoch 6/120
13230/13230 [==============================] - 18s 1ms/step - loss: 1.1723 - acc: 0.5971 - val_loss: 1.2072 - val_acc: 0.5711
Epoch 7/120
13230/13230 [==============================] - 18s 1ms/step - loss: 1.1268 - acc: 0.6117 - val_loss: 1.1533 - val_acc: 0.6068
Epoch 8/120
13230/13230 [==============================] - 18s 1ms/step - loss: 1.0927 - acc: 0.6238 - val_loss: 1.1138 - val_acc: 0.6157
Epoch 9/120
13230/13230 [==============================] - 18s 1ms/step - loss: 1.0578 - acc: 0.6364 - val_loss: 1.1074 - val_acc: 0.6133
Epoch 10/120
13230/13230 [==============================] - 18s 1ms/step - loss: 1.0322 - acc: 0.6457 - val_loss: 1.0577 - val_acc: 0.6379
Epoch 11/120
13230/13230 [==============================] - 18s 1ms/step - loss: 1.0066 - acc: 0.6548 - val_loss: 1.0368 - val_acc: 0.6410
Epoch 12/120
13230/13230 [==============================] - 18s 1ms/step - loss: 0.9824 - acc: 0.6633 - val_loss: 1.0320 - val_acc: 0.6376
Epoch 13/120
13230/13230 [==============================] - 18s 1ms/step - loss: 0.9596 - acc: 0.6707 - val_loss: 0.9732 - val_acc: 0.6644
Epoch 14/120
13230/13230 [==============================] - 18s 1ms/step - loss: 0.9376 - acc: 0.6791 - val_loss: 0.9795 - val_acc: 0.6689
Epoch 15/120
13230/13230 [==============================] - 18s 1ms/step - loss: 0.9146 - acc: 0.6861 - val_loss: 1.0212 - val_acc: 0.6534
Epoch 16/120
13230/13230 [==============================] - 18s 1ms/step - loss: 0.8967 - acc: 0.6921 - val_loss: 0.9404 - val_acc: 0.6759
Epoch 17/120
13230/13230 [==============================] - 18s 1ms/step - loss: 0.8747 - acc: 0.7057 - val_loss: 0.9191 - val_acc: 0.6842
Epoch 18/120
13230/13230 [==============================] - 18s 1ms/step - loss: 0.8575 - acc: 0.7132 - val_loss: 0.9204 - val_acc: 0.6874
Epoch 19/120
13230/13230 [==============================] - 18s 1ms/step - loss: 0.8451 - acc: 0.7159 - val_loss: 0.9199 - val_acc: 0.6827
Epoch 20/120
13230/13230 [==============================] - 18s 1ms/step - loss: 0.8207 - acc: 0.7160 - val_loss: 0.9399 - val_acc: 0.6765
Epoch 21/120
13230/13230 [==============================] - 18s 1ms/step - loss: 0.8077 - acc: 0.7237 - val_loss: 0.8723 - val_acc: 0.7042
Epoch 22/120
13230/13230 [==============================] - 18s 1ms/step - loss: 0.7874 - acc: 0.7333 - val_loss: 0.9147 - val_acc: 0.6930
Epoch 23/120
13230/13230 [==============================] - 18s 1ms/step - loss: 0.7724 - acc: 0.7361 - val_loss: 0.9268 - val_acc: 0.6827
Epoch 24/120
13230/13230 [==============================] - 18s 1ms/step - loss: 0.7589 - acc: 0.7444 - val_loss: 0.8606 - val_acc: 0.7116
Epoch 25/120
13230/13230 [==============================] - 18s 1ms/step - loss: 0.7458 - acc: 0.7485 - val_loss: 0.8760 - val_acc: 0.6983
Epoch 26/120
13230/13230 [==============================] - 18s 1ms/step - loss: 0.7308 - acc: 0.7539 - val_loss: 0.8434 - val_acc: 0.7191
Epoch 27/120
13230/13230 [==============================] - 18s 1ms/step - loss: 0.7099 - acc: 0.7640 - val_loss: 0.8685 - val_acc: 0.7087
Epoch 28/120
13230/13230 [==============================] - 18s 1ms/step - loss: 0.6940 - acc: 0.7677 - val_loss: 0.9113 - val_acc: 0.6844
Epoch 29/120
13230/13230 [==============================] - 18s 1ms/step - loss: 0.6837 - acc: 0.7708 - val_loss: 0.8819 - val_acc: 0.7060
Epoch 30/120
13230/13230 [==============================] - 18s 1ms/step - loss: 0.6707 - acc: 0.7729 - val_loss: 0.9285 - val_acc: 0.6818
Epoch 31/120
13230/13230 [==============================] - 18s 1ms/step - loss: 0.6617 - acc: 0.7794 - val_loss: 0.8832 - val_acc: 0.6969
Epoch 32/120
13230/13230 [==============================] - 18s 1ms/step - loss: 0.6428 - acc: 0.7813 - val_loss: 0.7967 - val_acc: 0.7302
Epoch 33/120
13230/13230 [==============================] - 18s 1ms/step - loss: 0.6398 - acc: 0.7818 - val_loss: 0.7849 - val_acc: 0.7344
Epoch 34/120
13230/13230 [==============================] - 18s 1ms/step - loss: 0.6219 - acc: 0.7928 - val_loss: 0.8505 - val_acc: 0.7164
Epoch 35/120
13230/13230 [==============================] - 18s 1ms/step - loss: 0.6165 - acc: 0.7938 - val_loss: 0.7785 - val_acc: 0.7391
Epoch 36/120
13230/13230 [==============================] - 18s 1ms/step - loss: 0.5977 - acc: 0.8012 - val_loss: 0.7598 - val_acc: 0.7466
Epoch 37/120
13230/13230 [==============================] - 18s 1ms/step - loss: 0.5889 - acc: 0.8028 - val_loss: 0.7978 - val_acc: 0.7320
Epoch 38/120
13230/13230 [==============================] - 18s 1ms/step - loss: 0.5706 - acc: 0.8076 - val_loss: 0.7902 - val_acc: 0.7367
Epoch 39/120
13230/13230 [==============================] - 18s 1ms/step - loss: 0.5550 - acc: 0.8181 - val_loss: 0.8151 - val_acc: 0.7293
Epoch 40/120
13230/13230 [==============================] - 18s 1ms/step - loss: 0.5514 - acc: 0.8153 - val_loss: 0.8273 - val_acc: 0.7259
Epoch 41/120
13230/13230 [==============================] - 18s 1ms/step - loss: 0.5424 - acc: 0.8194 - val_loss: 0.7618 - val_acc: 0.7450
Epoch 42/120
13230/13230 [==============================] - 18s 1ms/step - loss: 0.5281 - acc: 0.8248 - val_loss: 0.7982 - val_acc: 0.7388
Epoch 43/120
13230/13230 [==============================] - 18s 1ms/step - loss: 0.5156 - acc: 0.8299 - val_loss: 0.9047 - val_acc: 0.7079
Epoch 44/120
13230/13230 [==============================] - 18s 1ms/step - loss: 0.5108 - acc: 0.8296 - val_loss: 0.9382 - val_acc: 0.7081
Epoch 45/120
13230/13230 [==============================] - 18s 1ms/step - loss: 0.5016 - acc: 0.8322 - val_loss: 0.8383 - val_acc: 0.7264
Epoch 46/120
13230/13230 [==============================] - 18s 1ms/step - loss: 0.4876 - acc: 0.8400 - val_loss: 0.7535 - val_acc: 0.7498
Epoch 47/120
13230/13230 [==============================] - 18s 1ms/step - loss: 0.4789 - acc: 0.8400 - val_loss: 0.8169 - val_acc: 0.7309
Epoch 48/120
13230/13230 [==============================] - 18s 1ms/step - loss: 0.4682 - acc: 0.8434 - val_loss: 0.7333 - val_acc: 0.7559
Epoch 49/120
13230/13230 [==============================] - 18s 1ms/step - loss: 0.4576 - acc: 0.8514 - val_loss: 0.7775 - val_acc: 0.7468
Epoch 50/120
13230/13230 [==============================] - 18s 1ms/step - loss: 0.4434 - acc: 0.8548 - val_loss: 0.7592 - val_acc: 0.7507
Epoch 51/120
13230/13230 [==============================] - 18s 1ms/step - loss: 0.4352 - acc: 0.8578 - val_loss: 0.9053 - val_acc: 0.7188
Epoch 52/120
13230/13230 [==============================] - 18s 1ms/step - loss: 0.4289 - acc: 0.8594 - val_loss: 0.8157 - val_acc: 0.7317
Epoch 53/120
13230/13230 [==============================] - 18s 1ms/step - loss: 0.4267 - acc: 0.8609 - val_loss: 0.7409 - val_acc: 0.7536
Epoch 54/120
13230/13230 [==============================] - 18s 1ms/step - loss: 0.4091 - acc: 0.8668 - val_loss: 0.7970 - val_acc: 0.7465
Epoch 55/120
13230/13230 [==============================] - 18s 1ms/step - loss: 0.4065 - acc: 0.8639 - val_loss: 0.7480 - val_acc: 0.7592
Epoch 56/120
13230/13230 [==============================] - 18s 1ms/step - loss: 0.3891 - acc: 0.8735 - val_loss: 0.8360 - val_acc: 0.7339
Epoch 57/120
13230/13230 [==============================] - 18s 1ms/step - loss: 0.3841 - acc: 0.8735 - val_loss: 0.8508 - val_acc: 0.7300
Epoch 58/120
13230/13230 [==============================] - 18s 1ms/step - loss: 0.3731 - acc: 0.8780 - val_loss: 0.6856 - val_acc: 0.7761
Epoch 59/120
13230/13230 [==============================] - 18s 1ms/step - loss: 0.3679 - acc: 0.8793 - val_loss: 0.8136 - val_acc: 0.7423
Epoch 60/120
13230/13230 [==============================] - 18s 1ms/step - loss: 0.3601 - acc: 0.8847 - val_loss: 0.7772 - val_acc: 0.7569
Epoch 61/120
13230/13230 [==============================] - 18s 1ms/step - loss: 0.3536 - acc: 0.8844 - val_loss: 0.7597 - val_acc: 0.7574
Epoch 62/120
13230/13230 [==============================] - 18s 1ms/step - loss: 0.3473 - acc: 0.8867 - val_loss: 0.7668 - val_acc: 0.7568
Epoch 63/120
13230/13230 [==============================] - 18s 1ms/step - loss: 0.3361 - acc: 0.8910 - val_loss: 0.7735 - val_acc: 0.7515
Epoch 64/120
13230/13230 [==============================] - 18s 1ms/step - loss: 0.3302 - acc: 0.8929 - val_loss: 0.8443 - val_acc: 0.7397
Epoch 65/120
13230/13230 [==============================] - 18s 1ms/step - loss: 0.3169 - acc: 0.8967 - val_loss: 0.7368 - val_acc: 0.7660
Epoch 66/120
13230/13230 [==============================] - 18s 1ms/step - loss: 0.3087 - acc: 0.9036 - val_loss: 0.8285 - val_acc: 0.7494
Epoch 67/120
13230/13230 [==============================] - 18s 1ms/step - loss: 0.3038 - acc: 0.9031 - val_loss: 0.7391 - val_acc: 0.7621
Epoch 68/120
13230/13230 [==============================] - 18s 1ms/step - loss: 0.3027 - acc: 0.9007 - val_loss: 0.7196 - val_acc: 0.7702
Epoch 69/120
13230/13230 [==============================] - 18s 1ms/step - loss: 0.2908 - acc: 0.9051 - val_loss: 0.8037 - val_acc: 0.7512
Epoch 70/120
13230/13230 [==============================] - 18s 1ms/step - loss: 0.2829 - acc: 0.9058 - val_loss: 0.8010 - val_acc: 0.7554
Epoch 71/120
13230/13230 [==============================] - 18s 1ms/step - loss: 0.2761 - acc: 0.9136 - val_loss: 0.7535 - val_acc: 0.7646
Epoch 72/120
13230/13230 [==============================] - 18s 1ms/step - loss: 0.2757 - acc: 0.9113 - val_loss: 0.8071 - val_acc: 0.7530
Epoch 73/120
13230/13230 [==============================] - 18s 1ms/step - loss: 0.2657 - acc: 0.9147 - val_loss: 0.8107 - val_acc: 0.7596
Epoch 74/120
13230/13230 [==============================] - 18s 1ms/step - loss: 0.2541 - acc: 0.9190 - val_loss: 0.8366 - val_acc: 0.7512
Epoch 75/120
13230/13230 [==============================] - 18s 1ms/step - loss: 0.2474 - acc: 0.9218 - val_loss: 0.7587 - val_acc: 0.7790
Epoch 76/120
13230/13230 [==============================] - 18s 1ms/step - loss: 0.2448 - acc: 0.9203 - val_loss: 0.8148 - val_acc: 0.7584
Epoch 77/120
13230/13230 [==============================] - 18s 1ms/step - loss: 0.2416 - acc: 0.9227 - val_loss: 0.7398 - val_acc: 0.7811
Epoch 78/120
13230/13230 [==============================] - 18s 1ms/step - loss: 0.2279 - acc: 0.9281 - val_loss: 0.8316 - val_acc: 0.7562
Epoch 79/120
13230/13230 [==============================] - 18s 1ms/step - loss: 0.2250 - acc: 0.9317 - val_loss: 0.7318 - val_acc: 0.7803
Epoch 80/120
13230/13230 [==============================] - 18s 1ms/step - loss: 0.2190 - acc: 0.9293 - val_loss: 0.7259 - val_acc: 0.7803
Epoch 81/120
13230/13230 [==============================] - 18s 1ms/step - loss: 0.2123 - acc: 0.9339 - val_loss: 0.7375 - val_acc: 0.7832
Epoch 82/120
13230/13230 [==============================] - 18s 1ms/step - loss: 0.2076 - acc: 0.9357 - val_loss: 0.7252 - val_acc: 0.7868
Epoch 83/120
13230/13230 [==============================] - 18s 1ms/step - loss: 0.2057 - acc: 0.9345 - val_loss: 0.7978 - val_acc: 0.7686
Epoch 84/120
13230/13230 [==============================] - 18s 1ms/step - loss: 0.1951 - acc: 0.9401 - val_loss: 0.7592 - val_acc: 0.7778
Epoch 85/120
13230/13230 [==============================] - 18s 1ms/step - loss: 0.1904 - acc: 0.9420 - val_loss: 0.8276 - val_acc: 0.7726
Epoch 86/120
13230/13230 [==============================] - 18s 1ms/step - loss: 0.1886 - acc: 0.9395 - val_loss: 0.8141 - val_acc: 0.7661
Epoch 87/120
13230/13230 [==============================] - 18s 1ms/step - loss: 0.1866 - acc: 0.9410 - val_loss: 0.8267 - val_acc: 0.7690
Epoch 88/120
13230/13230 [==============================] - 18s 1ms/step - loss: 0.1777 - acc: 0.9448 - val_loss: 0.8041 - val_acc: 0.7737
Epoch 89/120
13230/13230 [==============================] - 18s 1ms/step - loss: 0.1685 - acc: 0.9500 - val_loss: 0.7251 - val_acc: 0.7896
Epoch 90/120
13230/13230 [==============================] - 18s 1ms/step - loss: 0.1715 - acc: 0.9466 - val_loss: 0.7564 - val_acc: 0.7826
Epoch 91/120
13230/13230 [==============================] - 18s 1ms/step - loss: 0.1687 - acc: 0.9495 - val_loss: 0.8549 - val_acc: 0.7683
Epoch 92/120
13230/13230 [==============================] - 18s 1ms/step - loss: 0.1627 - acc: 0.9494 - val_loss: 0.7871 - val_acc: 0.7816
Epoch 93/120
13230/13230 [==============================] - 18s 1ms/step - loss: 0.1505 - acc: 0.9539 - val_loss: 0.7965 - val_acc: 0.7841
Epoch 94/120
13230/13230 [==============================] - 18s 1ms/step - loss: 0.1536 - acc: 0.9519 - val_loss: 0.8453 - val_acc: 0.7741
Epoch 95/120
13230/13230 [==============================] - 18s 1ms/step - loss: 0.1514 - acc: 0.9533 - val_loss: 0.7853 - val_acc: 0.7808
Epoch 96/120
13230/13230 [==============================] - 18s 1ms/step - loss: 0.1425 - acc: 0.9562 - val_loss: 0.9206 - val_acc: 0.7654
Epoch 97/120
13230/13230 [==============================] - 18s 1ms/step - loss: 0.1398 - acc: 0.9573 - val_loss: 0.8774 - val_acc: 0.7723
Epoch 98/120
13230/13230 [==============================] - 18s 1ms/step - loss: 0.1339 - acc: 0.9600 - val_loss: 0.9523 - val_acc: 0.7504
Epoch 99/120
13230/13230 [==============================] - 18s 1ms/step - loss: 0.1366 - acc: 0.9583 - val_loss: 0.9550 - val_acc: 0.7586
Epoch 100/120
13230/13230 [==============================] - 18s 1ms/step - loss: 0.1308 - acc: 0.9608 - val_loss: 0.8217 - val_acc: 0.7814
Epoch 101/120
13230/13230 [==============================] - 18s 1ms/step - loss: 0.1297 - acc: 0.9615 - val_loss: 0.8519 - val_acc: 0.7741
Epoch 102/120
13230/13230 [==============================] - 18s 1ms/step - loss: 0.1217 - acc: 0.9647 - val_loss: 0.9651 - val_acc: 0.7580
Epoch 103/120
13230/13230 [==============================] - 18s 1ms/step - loss: 0.1213 - acc: 0.9638 - val_loss: 0.9467 - val_acc: 0.7625
Epoch 104/120
13230/13230 [==============================] - 18s 1ms/step - loss: 0.1174 - acc: 0.9647 - val_loss: 0.8234 - val_acc: 0.7826
Epoch 105/120
13230/13230 [==============================] - 18s 1ms/step - loss: 0.1126 - acc: 0.9663 - val_loss: 0.8512 - val_acc: 0.7782
Epoch 106/120
13230/13230 [==============================] - 18s 1ms/step - loss: 0.1111 - acc: 0.9665 - val_loss: 0.9177 - val_acc: 0.7667
Epoch 107/120
13230/13230 [==============================] - 18s 1ms/step - loss: 0.1039 - acc: 0.9693 - val_loss: 0.9813 - val_acc: 0.7587
Epoch 108/120
13230/13230 [==============================] - 18s 1ms/step - loss: 0.1050 - acc: 0.9680 - val_loss: 0.9278 - val_acc: 0.7713
Epoch 109/120
13230/13230 [==============================] - 18s 1ms/step - loss: 0.1018 - acc: 0.9693 - val_loss: 0.8809 - val_acc: 0.7840
Epoch 110/120
13230/13230 [==============================] - 18s 1ms/step - loss: 0.1013 - acc: 0.9704 - val_loss: 0.8778 - val_acc: 0.7808
Epoch 111/120
13230/13230 [==============================] - 18s 1ms/step - loss: 0.0963 - acc: 0.9704 - val_loss: 0.8641 - val_acc: 0.7906
Epoch 112/120
13230/13230 [==============================] - 18s 1ms/step - loss: 0.0983 - acc: 0.9698 - val_loss: 0.8176 - val_acc: 0.7906
Epoch 113/120
13230/13230 [==============================] - 18s 1ms/step - loss: 0.0932 - acc: 0.9713 - val_loss: 0.9360 - val_acc: 0.7807
Epoch 114/120
13230/13230 [==============================] - 18s 1ms/step - loss: 0.0911 - acc: 0.9741 - val_loss: 0.8710 - val_acc: 0.7873
Epoch 115/120
13230/13230 [==============================] - 18s 1ms/step - loss: 0.0880 - acc: 0.9754 - val_loss: 1.0415 - val_acc: 0.7611
Epoch 116/120
13230/13230 [==============================] - 18s 1ms/step - loss: 0.0865 - acc: 0.9764 - val_loss: 1.1888 - val_acc: 0.7336
Epoch 117/120
13230/13230 [==============================] - 18s 1ms/step - loss: 0.0873 - acc: 0.9734 - val_loss: 0.8403 - val_acc: 0.7958
Epoch 118/120
13230/13230 [==============================] - 18s 1ms/step - loss: 0.0814 - acc: 0.9762 - val_loss: 0.8546 - val_acc: 0.7924
Epoch 119/120
13230/13230 [==============================] - 18s 1ms/step - loss: 0.0827 - acc: 0.9745 - val_loss: 0.8887 - val_acc: 0.7884
Epoch 120/120
13230/13230 [==============================] - 18s 1ms/step - loss: 0.0747 - acc: 0.9782 - val_loss: 0.9928 - val_acc: 0.7754
The accuracy for the segments of this partition is:  0.7753590325018896
The accuracy for this partition is:  0.8844444444444445
[0.8933333333333333, 0.8844444444444445, 0.8844444444444445]
