(venv) mldl00@mldl00:~/cs529_neural_networks/FSFC$ python FSFC.py
Using TensorFlow backend.
./genres/classical
./genres/country
./genres/metal
./genres/rock
./genres/jazz
./genres/reggae
./genres/blues
./genres/pop
./genres/disco
./genres/hiphop
(1324624, 128)
(1324624, 1)
The current partition being tested is partition 0.
Train on 883082 samples, validate on 441542 samples
Epoch 1/90
2018-11-13 22:55:58.955457: I tensorflow/core/common_runtime/gpu/gpu_device.cc:1411] Found device 0 with properties: 
name: GeForce GTX 1070 Ti major: 6 minor: 1 memoryClockRate(GHz): 1.683
pciBusID: 0000:02:00.0
totalMemory: 7.92GiB freeMemory: 7.72GiB
2018-11-13 22:55:58.955502: I tensorflow/core/common_runtime/gpu/gpu_device.cc:1490] Adding visible gpu devices: 0
2018-11-13 22:55:59.176035: I tensorflow/core/common_runtime/gpu/gpu_device.cc:971] Device interconnect StreamExecutor with strength 1 edge matrix:
2018-11-13 22:55:59.176092: I tensorflow/core/common_runtime/gpu/gpu_device.cc:977]      0 
2018-11-13 22:55:59.176101: I tensorflow/core/common_runtime/gpu/gpu_device.cc:990] 0:   N 
2018-11-13 22:55:59.176291: I tensorflow/core/common_runtime/gpu/gpu_device.cc:1103] Created TensorFlow device (/job:localhost/replica:0/task:0/device:GPU:0 with 7445 MB memory) -> physical GPU (device: 0, name: GeForce GTX 1070 Ti, pci bus id: 0000:02:00.0, compute capability: 6.1)
883082/883082 [==============================] - 38s 43us/step - loss: 1.7146 - acc: 0.3852 - val_loss: 1.6529 - val_acc: 0.4026
Epoch 2/90
883082/883082 [==============================] - 37s 42us/step - loss: 1.5839 - acc: 0.4301 - val_loss: 1.5533 - val_acc: 0.4383
Epoch 3/90
883082/883082 [==============================] - 38s 43us/step - loss: 1.5285 - acc: 0.4500 - val_loss: 1.4940 - val_acc: 0.4643
Epoch 4/90
883082/883082 [==============================] - 37s 42us/step - loss: 1.4914 - acc: 0.4638 - val_loss: 1.4830 - val_acc: 0.4692
Epoch 5/90
883082/883082 [==============================] - 37s 42us/step - loss: 1.4615 - acc: 0.4753 - val_loss: 1.4227 - val_acc: 0.4874
Epoch 6/90
883082/883082 [==============================] - 38s 43us/step - loss: 1.4377 - acc: 0.4841 - val_loss: 1.4649 - val_acc: 0.4774
Epoch 7/90
883082/883082 [==============================] - 38s 43us/step - loss: 1.4184 - acc: 0.4910 - val_loss: 1.4635 - val_acc: 0.4782
Epoch 8/90
883082/883082 [==============================] - 37s 42us/step - loss: 1.4002 - acc: 0.4981 - val_loss: 1.6901 - val_acc: 0.4408
Epoch 9/90
883082/883082 [==============================] - 38s 43us/step - loss: 1.3842 - acc: 0.5034 - val_loss: 1.3818 - val_acc: 0.5049
Epoch 10/90
883082/883082 [==============================] - 37s 42us/step - loss: 1.3704 - acc: 0.5088 - val_loss: 1.3259 - val_acc: 0.5251
Epoch 11/90
883082/883082 [==============================] - 37s 42us/step - loss: 1.3588 - acc: 0.5136 - val_loss: 1.4049 - val_acc: 0.5028
Epoch 12/90
883082/883082 [==============================] - 37s 42us/step - loss: 1.3470 - acc: 0.5176 - val_loss: 1.3609 - val_acc: 0.5145
Epoch 13/90
883082/883082 [==============================] - 37s 42us/step - loss: 1.3375 - acc: 0.5208 - val_loss: 1.2935 - val_acc: 0.5365
Epoch 14/90
883082/883082 [==============================] - 37s 42us/step - loss: 1.3285 - acc: 0.5245 - val_loss: 1.2867 - val_acc: 0.5397
Epoch 15/90
883082/883082 [==============================] - 37s 42us/step - loss: 1.3195 - acc: 0.5276 - val_loss: 1.2771 - val_acc: 0.5432
Epoch 16/90
883082/883082 [==============================] - 38s 42us/step - loss: 1.3118 - acc: 0.5309 - val_loss: 1.2719 - val_acc: 0.5460
Epoch 17/90
883082/883082 [==============================] - 37s 42us/step - loss: 1.3044 - acc: 0.5332 - val_loss: 1.2716 - val_acc: 0.5469
Epoch 18/90
883082/883082 [==============================] - 37s 42us/step - loss: 1.2975 - acc: 0.5357 - val_loss: 1.5857 - val_acc: 0.4913
Epoch 19/90
883082/883082 [==============================] - 38s 43us/step - loss: 1.2921 - acc: 0.5374 - val_loss: 1.2734 - val_acc: 0.5445
Epoch 20/90
883082/883082 [==============================] - 37s 42us/step - loss: 1.2853 - acc: 0.5402 - val_loss: 1.2511 - val_acc: 0.5536
Epoch 21/90
883082/883082 [==============================] - 38s 43us/step - loss: 1.2797 - acc: 0.5424 - val_loss: 1.2769 - val_acc: 0.5465
Epoch 22/90
883082/883082 [==============================] - 37s 42us/step - loss: 1.2747 - acc: 0.5439 - val_loss: 1.2757 - val_acc: 0.5445
Epoch 23/90
883082/883082 [==============================] - 38s 43us/step - loss: 1.2693 - acc: 0.5460 - val_loss: 1.2246 - val_acc: 0.5631
Epoch 24/90
883082/883082 [==============================] - 37s 42us/step - loss: 1.2646 - acc: 0.5477 - val_loss: 1.2248 - val_acc: 0.5623
Epoch 25/90
883082/883082 [==============================] - 38s 42us/step - loss: 1.2602 - acc: 0.5497 - val_loss: 1.2243 - val_acc: 0.5627
Epoch 26/90
883082/883082 [==============================] - 37s 42us/step - loss: 1.2555 - acc: 0.5511 - val_loss: 1.2119 - val_acc: 0.5672
Epoch 27/90
883082/883082 [==============================] - 38s 42us/step - loss: 1.2518 - acc: 0.5525 - val_loss: 1.2210 - val_acc: 0.5630
Epoch 28/90
883082/883082 [==============================] - 38s 43us/step - loss: 1.2481 - acc: 0.5539 - val_loss: 1.2150 - val_acc: 0.5656
Epoch 29/90
883082/883082 [==============================] - 37s 42us/step - loss: 1.2439 - acc: 0.5553 - val_loss: 1.2050 - val_acc: 0.5709
Epoch 30/90
883082/883082 [==============================] - 37s 42us/step - loss: 1.2408 - acc: 0.5566 - val_loss: 1.2069 - val_acc: 0.5676
Epoch 31/90
883082/883082 [==============================] - 37s 42us/step - loss: 1.2370 - acc: 0.5579 - val_loss: 1.1956 - val_acc: 0.5729
Epoch 32/90
883082/883082 [==============================] - 37s 42us/step - loss: 1.2344 - acc: 0.5589 - val_loss: 1.2046 - val_acc: 0.5708
Epoch 33/90
883082/883082 [==============================] - 38s 42us/step - loss: 1.2302 - acc: 0.5603 - val_loss: 1.1887 - val_acc: 0.5759
Epoch 34/90
883082/883082 [==============================] - 37s 42us/step - loss: 1.2277 - acc: 0.5611 - val_loss: 1.1922 - val_acc: 0.5747
Epoch 35/90
883082/883082 [==============================] - 38s 42us/step - loss: 1.2245 - acc: 0.5623 - val_loss: 1.2288 - val_acc: 0.5619
Epoch 36/90
883082/883082 [==============================] - 37s 42us/step - loss: 1.2223 - acc: 0.5633 - val_loss: 1.1832 - val_acc: 0.5776
Epoch 37/90
883082/883082 [==============================] - 38s 43us/step - loss: 1.2184 - acc: 0.5645 - val_loss: 1.1943 - val_acc: 0.5739
Epoch 38/90
883082/883082 [==============================] - 38s 43us/step - loss: 1.2169 - acc: 0.5650 - val_loss: 1.1867 - val_acc: 0.5764
Epoch 39/90
883082/883082 [==============================] - 38s 42us/step - loss: 1.2143 - acc: 0.5657 - val_loss: 1.1739 - val_acc: 0.5803
Epoch 40/90
883082/883082 [==============================] - 38s 42us/step - loss: 1.2119 - acc: 0.5672 - val_loss: 1.1682 - val_acc: 0.5833
Epoch 41/90
883082/883082 [==============================] - 37s 42us/step - loss: 1.2092 - acc: 0.5687 - val_loss: 1.1659 - val_acc: 0.5837
Epoch 42/90
883082/883082 [==============================] - 37s 42us/step - loss: 1.2066 - acc: 0.5692 - val_loss: 1.1887 - val_acc: 0.5754
Epoch 43/90
883082/883082 [==============================] - 34s 39us/step - loss: 1.2050 - acc: 0.5693 - val_loss: 1.1656 - val_acc: 0.5845
Epoch 44/90
883082/883082 [==============================] - 37s 41us/step - loss: 1.2019 - acc: 0.5709 - val_loss: 1.1688 - val_acc: 0.5832
Epoch 45/90
883082/883082 [==============================] - 37s 42us/step - loss: 1.2006 - acc: 0.5709 - val_loss: 1.1610 - val_acc: 0.5853
Epoch 46/90
883082/883082 [==============================] - 37s 42us/step - loss: 1.1988 - acc: 0.5718 - val_loss: 1.1692 - val_acc: 0.5824
Epoch 47/90
883082/883082 [==============================] - 37s 42us/step - loss: 1.1960 - acc: 0.5724 - val_loss: 1.1627 - val_acc: 0.5842
Epoch 48/90
883082/883082 [==============================] - 37s 42us/step - loss: 1.1940 - acc: 0.5736 - val_loss: 1.1544 - val_acc: 0.5875
Epoch 49/90
883082/883082 [==============================] - 37s 42us/step - loss: 1.1920 - acc: 0.5738 - val_loss: 1.1636 - val_acc: 0.5849
Epoch 50/90
883082/883082 [==============================] - 37s 42us/step - loss: 1.1906 - acc: 0.5746 - val_loss: 1.1582 - val_acc: 0.5865
Epoch 51/90
883082/883082 [==============================] - 37s 42us/step - loss: 1.1887 - acc: 0.5756 - val_loss: 1.1567 - val_acc: 0.5872
Epoch 52/90
883082/883082 [==============================] - 37s 42us/step - loss: 1.1867 - acc: 0.5758 - val_loss: 1.1528 - val_acc: 0.5892
Epoch 53/90
883082/883082 [==============================] - 37s 42us/step - loss: 1.1850 - acc: 0.5769 - val_loss: 1.1523 - val_acc: 0.5890
Epoch 54/90
883082/883082 [==============================] - 38s 42us/step - loss: 1.1840 - acc: 0.5767 - val_loss: 1.4857 - val_acc: 0.5273
Epoch 55/90
883082/883082 [==============================] - 37s 42us/step - loss: 1.1821 - acc: 0.5780 - val_loss: 1.1423 - val_acc: 0.5924
Epoch 56/90
883082/883082 [==============================] - 37s 42us/step - loss: 1.1800 - acc: 0.5784 - val_loss: 1.1460 - val_acc: 0.5914
Epoch 57/90
883082/883082 [==============================] - 37s 42us/step - loss: 1.1784 - acc: 0.5791 - val_loss: 1.1386 - val_acc: 0.5939
Epoch 58/90
883082/883082 [==============================] - 38s 43us/step - loss: 1.1773 - acc: 0.5796 - val_loss: 1.1618 - val_acc: 0.5854
Epoch 59/90
883082/883082 [==============================] - 37s 42us/step - loss: 1.1758 - acc: 0.5801 - val_loss: 1.1450 - val_acc: 0.5908
Epoch 60/90
883082/883082 [==============================] - 37s 42us/step - loss: 1.1738 - acc: 0.5805 - val_loss: 1.1573 - val_acc: 0.5870
Epoch 61/90
883082/883082 [==============================] - 38s 43us/step - loss: 1.1730 - acc: 0.5809 - val_loss: 1.1494 - val_acc: 0.5903
Epoch 62/90
883082/883082 [==============================] - 37s 42us/step - loss: 1.1717 - acc: 0.5815 - val_loss: 1.1579 - val_acc: 0.5872
Epoch 63/90
883082/883082 [==============================] - 38s 43us/step - loss: 1.1701 - acc: 0.5826 - val_loss: 1.1308 - val_acc: 0.5974
Epoch 64/90
883082/883082 [==============================] - 38s 43us/step - loss: 1.1691 - acc: 0.5825 - val_loss: 1.1510 - val_acc: 0.5898
Epoch 65/90
883082/883082 [==============================] - 38s 43us/step - loss: 1.1674 - acc: 0.5827 - val_loss: 1.1361 - val_acc: 0.5950
Epoch 66/90
883082/883082 [==============================] - 38s 43us/step - loss: 1.1658 - acc: 0.5836 - val_loss: 1.1266 - val_acc: 0.5985
Epoch 67/90
883082/883082 [==============================] - 38s 43us/step - loss: 1.1649 - acc: 0.5842 - val_loss: 1.2745 - val_acc: 0.5656
Epoch 68/90
883082/883082 [==============================] - 38s 43us/step - loss: 1.1636 - acc: 0.5846 - val_loss: 1.1282 - val_acc: 0.5974
Epoch 69/90
883082/883082 [==============================] - 38s 42us/step - loss: 1.1620 - acc: 0.5851 - val_loss: 1.1259 - val_acc: 0.5988
Epoch 70/90
883082/883082 [==============================] - 37s 42us/step - loss: 1.1609 - acc: 0.5853 - val_loss: 1.1268 - val_acc: 0.5986
Epoch 71/90
883082/883082 [==============================] - 38s 43us/step - loss: 1.1599 - acc: 0.5857 - val_loss: 1.1491 - val_acc: 0.5906
Epoch 72/90
883082/883082 [==============================] - 38s 43us/step - loss: 1.1585 - acc: 0.5863 - val_loss: 1.1237 - val_acc: 0.5990
Epoch 73/90
883082/883082 [==============================] - 37s 42us/step - loss: 1.1572 - acc: 0.5868 - val_loss: 1.1187 - val_acc: 0.6007
Epoch 74/90
883082/883082 [==============================] - 38s 43us/step - loss: 1.1568 - acc: 0.5870 - val_loss: 1.1202 - val_acc: 0.6007
Epoch 75/90
883082/883082 [==============================] - 38s 43us/step - loss: 1.1549 - acc: 0.5873 - val_loss: 1.1338 - val_acc: 0.5959
Epoch 76/90
883082/883082 [==============================] - 38s 42us/step - loss: 1.1545 - acc: 0.5878 - val_loss: 1.1321 - val_acc: 0.5964
Epoch 77/90
883082/883082 [==============================] - 37s 42us/step - loss: 1.1533 - acc: 0.5883 - val_loss: 1.1212 - val_acc: 0.6007
Epoch 78/90
883082/883082 [==============================] - 37s 42us/step - loss: 1.1528 - acc: 0.5890 - val_loss: 1.1186 - val_acc: 0.6009
Epoch 79/90
883082/883082 [==============================] - 38s 43us/step - loss: 1.1514 - acc: 0.5887 - val_loss: 1.1137 - val_acc: 0.6032
Epoch 80/90
883082/883082 [==============================] - 37s 42us/step - loss: 1.1502 - acc: 0.5890 - val_loss: 1.1157 - val_acc: 0.6015
Epoch 81/90
883082/883082 [==============================] - 38s 42us/step - loss: 1.1490 - acc: 0.5892 - val_loss: 1.1189 - val_acc: 0.6013
Epoch 82/90
883082/883082 [==============================] - 37s 42us/step - loss: 1.1487 - acc: 0.5901 - val_loss: 1.1160 - val_acc: 0.6026
Epoch 83/90
883082/883082 [==============================] - 38s 43us/step - loss: 1.1468 - acc: 0.5907 - val_loss: 1.1118 - val_acc: 0.6038
Epoch 84/90
883082/883082 [==============================] - 37s 42us/step - loss: 1.1467 - acc: 0.5911 - val_loss: 1.1126 - val_acc: 0.6030
Epoch 85/90
883082/883082 [==============================] - 38s 43us/step - loss: 1.1448 - acc: 0.5910 - val_loss: 1.1095 - val_acc: 0.6040
Epoch 86/90
883082/883082 [==============================] - 37s 42us/step - loss: 1.1443 - acc: 0.5914 - val_loss: 1.1075 - val_acc: 0.6051
Epoch 87/90
883082/883082 [==============================] - 37s 42us/step - loss: 1.1442 - acc: 0.5916 - val_loss: 1.1100 - val_acc: 0.6043
Epoch 88/90
883082/883082 [==============================] - 37s 42us/step - loss: 1.1431 - acc: 0.5921 - val_loss: 1.1135 - val_acc: 0.6026
Epoch 89/90
883082/883082 [==============================] - 38s 43us/step - loss: 1.1416 - acc: 0.5925 - val_loss: 1.1072 - val_acc: 0.6059
Epoch 90/90
883082/883082 [==============================] - 38s 43us/step - loss: 1.1402 - acc: 0.5926 - val_loss: 1.1096 - val_acc: 0.6047
The accuracy for the segments of this partition is:  0.6046695444600967
The accuracy for this partition is:  0.92
The current partition being tested is partition 1.
Train on 883083 samples, validate on 441541 samples
Epoch 1/90
883083/883083 [==============================] - 38s 43us/step - loss: 1.7154 - acc: 0.3847 - val_loss: 1.6210 - val_acc: 0.4154
Epoch 2/90
883083/883083 [==============================] - 38s 43us/step - loss: 1.5856 - acc: 0.4285 - val_loss: 1.5604 - val_acc: 0.4394
Epoch 3/90
883083/883083 [==============================] - 37s 42us/step - loss: 1.5306 - acc: 0.4501 - val_loss: 1.4927 - val_acc: 0.4636
Epoch 4/90
883083/883083 [==============================] - 38s 43us/step - loss: 1.4929 - acc: 0.4632 - val_loss: 1.4710 - val_acc: 0.4750
Epoch 5/90
883083/883083 [==============================] - 38s 43us/step - loss: 1.4635 - acc: 0.4744 - val_loss: 1.4349 - val_acc: 0.4846
Epoch 6/90
883083/883083 [==============================] - 38s 43us/step - loss: 1.4393 - acc: 0.4830 - val_loss: 1.4451 - val_acc: 0.4838
Epoch 7/90
883083/883083 [==============================] - 38s 43us/step - loss: 1.4193 - acc: 0.4910 - val_loss: 1.3744 - val_acc: 0.5078
Epoch 8/90
883083/883083 [==============================] - 38s 43us/step - loss: 1.4024 - acc: 0.4968 - val_loss: 1.3811 - val_acc: 0.5046
Epoch 9/90
883083/883083 [==============================] - 38s 43us/step - loss: 1.3864 - acc: 0.5028 - val_loss: 1.3961 - val_acc: 0.5037
Epoch 10/90
883083/883083 [==============================] - 37s 42us/step - loss: 1.3719 - acc: 0.5078 - val_loss: 1.4379 - val_acc: 0.4942
Epoch 11/90
883083/883083 [==============================] - 38s 43us/step - loss: 1.3605 - acc: 0.5129 - val_loss: 1.3622 - val_acc: 0.5152
Epoch 12/90
883083/883083 [==============================] - 37s 42us/step - loss: 1.3493 - acc: 0.5169 - val_loss: 1.3790 - val_acc: 0.5136
Epoch 13/90
883083/883083 [==============================] - 38s 43us/step - loss: 1.3388 - acc: 0.5211 - val_loss: 1.2946 - val_acc: 0.5380
Epoch 14/90
883083/883083 [==============================] - 38s 43us/step - loss: 1.3292 - acc: 0.5241 - val_loss: 1.2928 - val_acc: 0.5395
Epoch 15/90
883083/883083 [==============================] - 38s 43us/step - loss: 1.3213 - acc: 0.5267 - val_loss: 1.2781 - val_acc: 0.5436
Epoch 16/90
883083/883083 [==============================] - 36s 41us/step - loss: 1.3138 - acc: 0.5299 - val_loss: 1.2664 - val_acc: 0.5490
Epoch 17/90
883083/883083 [==============================] - 38s 43us/step - loss: 1.3056 - acc: 0.5330 - val_loss: 1.2958 - val_acc: 0.5390
Epoch 18/90
883083/883083 [==============================] - 38s 43us/step - loss: 1.2991 - acc: 0.5345 - val_loss: 1.2709 - val_acc: 0.5453
Epoch 19/90
883083/883083 [==============================] - 37s 42us/step - loss: 1.2926 - acc: 0.5373 - val_loss: 1.2789 - val_acc: 0.5431
Epoch 20/90
883083/883083 [==============================] - 35s 40us/step - loss: 1.2868 - acc: 0.5397 - val_loss: 1.5831 - val_acc: 0.4799
Epoch 21/90
883083/883083 [==============================] - 35s 40us/step - loss: 1.2808 - acc: 0.5417 - val_loss: 1.2583 - val_acc: 0.5498
Epoch 22/90
883083/883083 [==============================] - 37s 42us/step - loss: 1.2768 - acc: 0.5429 - val_loss: 1.2291 - val_acc: 0.5608
Epoch 23/90
883083/883083 [==============================] - 36s 40us/step - loss: 1.2705 - acc: 0.5454 - val_loss: 1.2322 - val_acc: 0.5604
Epoch 24/90
883083/883083 [==============================] - 33s 38us/step - loss: 1.2655 - acc: 0.5471 - val_loss: 1.2269 - val_acc: 0.5622
Epoch 25/90
883083/883083 [==============================] - 34s 39us/step - loss: 1.2611 - acc: 0.5487 - val_loss: 1.2231 - val_acc: 0.5637
Epoch 26/90
883083/883083 [==============================] - 37s 42us/step - loss: 1.2569 - acc: 0.5504 - val_loss: 1.2158 - val_acc: 0.5663
Epoch 27/90
883083/883083 [==============================] - 37s 42us/step - loss: 1.2528 - acc: 0.5520 - val_loss: 1.5600 - val_acc: 0.5028
Epoch 28/90
883083/883083 [==============================] - 36s 41us/step - loss: 1.2493 - acc: 0.5534 - val_loss: 1.2093 - val_acc: 0.5682
Epoch 29/90
883083/883083 [==============================] - 38s 43us/step - loss: 1.2460 - acc: 0.5544 - val_loss: 1.2121 - val_acc: 0.5672
Epoch 30/90
883083/883083 [==============================] - 37s 42us/step - loss: 1.2406 - acc: 0.5565 - val_loss: 1.2111 - val_acc: 0.5682
Epoch 31/90
883083/883083 [==============================] - 38s 43us/step - loss: 1.2377 - acc: 0.5570 - val_loss: 1.1920 - val_acc: 0.5750
Epoch 32/90
883083/883083 [==============================] - 38s 43us/step - loss: 1.2342 - acc: 0.5584 - val_loss: 1.1921 - val_acc: 0.5749
Epoch 33/90
883083/883083 [==============================] - 38s 43us/step - loss: 1.2311 - acc: 0.5595 - val_loss: 1.1959 - val_acc: 0.5731
Epoch 34/90
883083/883083 [==============================] - 38s 43us/step - loss: 1.2277 - acc: 0.5610 - val_loss: 1.1849 - val_acc: 0.5777
Epoch 35/90
883083/883083 [==============================] - 38s 43us/step - loss: 1.2248 - acc: 0.5622 - val_loss: 1.2059 - val_acc: 0.5706
Epoch 36/90
883083/883083 [==============================] - 37s 42us/step - loss: 1.2223 - acc: 0.5632 - val_loss: 1.1811 - val_acc: 0.5789
Epoch 37/90
883083/883083 [==============================] - 37s 42us/step - loss: 1.2194 - acc: 0.5643 - val_loss: 1.1868 - val_acc: 0.5766
Epoch 38/90
883083/883083 [==============================] - 38s 43us/step - loss: 1.2169 - acc: 0.5652 - val_loss: 1.1727 - val_acc: 0.5816
Epoch 39/90
883083/883083 [==============================] - 38s 43us/step - loss: 1.2145 - acc: 0.5657 - val_loss: 1.1738 - val_acc: 0.5816
Epoch 40/90
883083/883083 [==============================] - 38s 43us/step - loss: 1.2119 - acc: 0.5667 - val_loss: 1.1704 - val_acc: 0.5831
Epoch 41/90
883083/883083 [==============================] - 38s 43us/step - loss: 1.2096 - acc: 0.5675 - val_loss: 1.1956 - val_acc: 0.5754
Epoch 42/90
883083/883083 [==============================] - 37s 42us/step - loss: 1.2071 - acc: 0.5680 - val_loss: 1.1647 - val_acc: 0.5852
Epoch 43/90
883083/883083 [==============================] - 38s 43us/step - loss: 1.2044 - acc: 0.5695 - val_loss: 1.1721 - val_acc: 0.5824
Epoch 44/90
883083/883083 [==============================] - 37s 42us/step - loss: 1.2023 - acc: 0.5701 - val_loss: 1.1742 - val_acc: 0.5817
Epoch 45/90
883083/883083 [==============================] - 38s 43us/step - loss: 1.2002 - acc: 0.5708 - val_loss: 1.1591 - val_acc: 0.5866
Epoch 46/90
883083/883083 [==============================] - 38s 42us/step - loss: 1.1986 - acc: 0.5716 - val_loss: 1.1703 - val_acc: 0.5832
Epoch 47/90
883083/883083 [==============================] - 38s 43us/step - loss: 1.1966 - acc: 0.5722 - val_loss: 1.1666 - val_acc: 0.5842
Epoch 48/90
883083/883083 [==============================] - 37s 42us/step - loss: 1.1945 - acc: 0.5733 - val_loss: 1.1549 - val_acc: 0.5888
Epoch 49/90
883083/883083 [==============================] - 38s 43us/step - loss: 1.1924 - acc: 0.5739 - val_loss: 1.1485 - val_acc: 0.5907
Epoch 50/90
883083/883083 [==============================] - 38s 43us/step - loss: 1.1900 - acc: 0.5747 - val_loss: 1.1488 - val_acc: 0.5909
Epoch 51/90
883083/883083 [==============================] - 38s 43us/step - loss: 1.1888 - acc: 0.5751 - val_loss: 1.1521 - val_acc: 0.5889
Epoch 52/90
883083/883083 [==============================] - 38s 43us/step - loss: 1.1870 - acc: 0.5755 - val_loss: 1.1903 - val_acc: 0.5797
Epoch 53/90
883083/883083 [==============================] - 38s 43us/step - loss: 1.1857 - acc: 0.5764 - val_loss: 1.1400 - val_acc: 0.5936
Epoch 54/90
883083/883083 [==============================] - 38s 43us/step - loss: 1.1833 - acc: 0.5775 - val_loss: 1.1437 - val_acc: 0.5926
Epoch 55/90
883083/883083 [==============================] - 38s 43us/step - loss: 1.1821 - acc: 0.5778 - val_loss: 1.1441 - val_acc: 0.5923
Epoch 56/90
883083/883083 [==============================] - 38s 43us/step - loss: 1.1802 - acc: 0.5780 - val_loss: 1.1397 - val_acc: 0.5942
Epoch 57/90
883083/883083 [==============================] - 37s 42us/step - loss: 1.1786 - acc: 0.5789 - val_loss: 1.1402 - val_acc: 0.5940
Epoch 58/90
883083/883083 [==============================] - 37s 42us/step - loss: 1.1769 - acc: 0.5793 - val_loss: 1.1370 - val_acc: 0.5950
Epoch 59/90
883083/883083 [==============================] - 38s 43us/step - loss: 1.1758 - acc: 0.5802 - val_loss: 1.1553 - val_acc: 0.5893
Epoch 60/90
883083/883083 [==============================] - 38s 43us/step - loss: 1.1746 - acc: 0.5804 - val_loss: 1.1475 - val_acc: 0.5912
Epoch 61/90
883083/883083 [==============================] - 38s 43us/step - loss: 1.1726 - acc: 0.5816 - val_loss: 1.1309 - val_acc: 0.5969
Epoch 62/90
883083/883083 [==============================] - 38s 43us/step - loss: 1.1724 - acc: 0.5813 - val_loss: 1.1379 - val_acc: 0.5953
Epoch 63/90
883083/883083 [==============================] - 37s 42us/step - loss: 1.1697 - acc: 0.5819 - val_loss: 1.1416 - val_acc: 0.5938
Epoch 64/90
883083/883083 [==============================] - 38s 43us/step - loss: 1.1684 - acc: 0.5825 - val_loss: 1.1313 - val_acc: 0.5969
Epoch 65/90
883083/883083 [==============================] - 38s 43us/step - loss: 1.1672 - acc: 0.5828 - val_loss: 1.1925 - val_acc: 0.5801
Epoch 66/90
883083/883083 [==============================] - 38s 43us/step - loss: 1.1656 - acc: 0.5832 - val_loss: 1.1346 - val_acc: 0.5963
Epoch 67/90
883083/883083 [==============================] - 36s 41us/step - loss: 1.1640 - acc: 0.5842 - val_loss: 1.1307 - val_acc: 0.5972
Epoch 68/90
883083/883083 [==============================] - 37s 42us/step - loss: 1.1634 - acc: 0.5846 - val_loss: 1.1238 - val_acc: 0.6003
Epoch 69/90
883083/883083 [==============================] - 38s 43us/step - loss: 1.1618 - acc: 0.5849 - val_loss: 1.1220 - val_acc: 0.6008
Epoch 70/90
883083/883083 [==============================] - 38s 43us/step - loss: 1.1603 - acc: 0.5858 - val_loss: 1.1251 - val_acc: 0.5993
Epoch 71/90
883083/883083 [==============================] - 38s 42us/step - loss: 1.1593 - acc: 0.5859 - val_loss: 1.1234 - val_acc: 0.5999
Epoch 72/90
883083/883083 [==============================] - 37s 42us/step - loss: 1.1581 - acc: 0.5863 - val_loss: 1.1234 - val_acc: 0.6003
Epoch 73/90
883083/883083 [==============================] - 38s 43us/step - loss: 1.1564 - acc: 0.5868 - val_loss: 1.1190 - val_acc: 0.6017
Epoch 74/90
883083/883083 [==============================] - 37s 42us/step - loss: 1.1564 - acc: 0.5869 - val_loss: 1.1176 - val_acc: 0.6019
Epoch 75/90
883083/883083 [==============================] - 37s 42us/step - loss: 1.1549 - acc: 0.5875 - val_loss: 1.1186 - val_acc: 0.6020
Epoch 76/90
883083/883083 [==============================] - 36s 40us/step - loss: 1.1532 - acc: 0.5880 - val_loss: 1.1296 - val_acc: 0.5979
Epoch 77/90
883083/883083 [==============================] - 37s 42us/step - loss: 1.1530 - acc: 0.5877 - val_loss: 1.1148 - val_acc: 0.6031
Epoch 78/90
883083/883083 [==============================] - 38s 43us/step - loss: 1.1511 - acc: 0.5886 - val_loss: 1.1178 - val_acc: 0.6022
Epoch 79/90
883083/883083 [==============================] - 36s 41us/step - loss: 1.1505 - acc: 0.5886 - val_loss: 1.1121 - val_acc: 0.6042
Epoch 80/90
883083/883083 [==============================] - 34s 39us/step - loss: 1.1500 - acc: 0.5894 - val_loss: 1.1180 - val_acc: 0.6017
Epoch 81/90
883083/883083 [==============================] - 38s 43us/step - loss: 1.1484 - acc: 0.5901 - val_loss: 1.1155 - val_acc: 0.6031
Epoch 82/90
883083/883083 [==============================] - 38s 43us/step - loss: 1.1473 - acc: 0.5899 - val_loss: 1.1130 - val_acc: 0.6039
Epoch 83/90
883083/883083 [==============================] - 38s 43us/step - loss: 1.1460 - acc: 0.5902 - val_loss: 1.1151 - val_acc: 0.6031
Epoch 84/90
883083/883083 [==============================] - 36s 41us/step - loss: 1.1451 - acc: 0.5907 - val_loss: 1.1094 - val_acc: 0.6050
Epoch 85/90
883083/883083 [==============================] - 37s 42us/step - loss: 1.1442 - acc: 0.5912 - val_loss: 1.1178 - val_acc: 0.6018
Epoch 86/90
883083/883083 [==============================] - 38s 43us/step - loss: 1.1435 - acc: 0.5914 - val_loss: 1.1190 - val_acc: 0.6022
Epoch 87/90
883083/883083 [==============================] - 38s 43us/step - loss: 1.1427 - acc: 0.5924 - val_loss: 1.1724 - val_acc: 0.5858
Epoch 88/90
883083/883083 [==============================] - 37s 42us/step - loss: 1.1419 - acc: 0.5918 - val_loss: 1.1070 - val_acc: 0.6051
Epoch 89/90
883083/883083 [==============================] - 38s 43us/step - loss: 1.1407 - acc: 0.5928 - val_loss: 1.1842 - val_acc: 0.5855
Epoch 90/90
883083/883083 [==============================] - 38s 43us/step - loss: 1.1398 - acc: 0.5929 - val_loss: 1.1213 - val_acc: 0.6009
The accuracy for the segments of this partition is:  0.6009453255756544
The accuracy for this partition is:  0.9133333333333333
The current partition being tested is partition 2.
Train on 883083 samples, validate on 441541 samples
Epoch 1/90
883083/883083 [==============================] - 38s 43us/step - loss: 1.7134 - acc: 0.3855 - val_loss: 1.6294 - val_acc: 0.4150
Epoch 2/90
883083/883083 [==============================] - 37s 42us/step - loss: 1.5828 - acc: 0.4304 - val_loss: 1.5415 - val_acc: 0.4470
Epoch 3/90
883083/883083 [==============================] - 38s 43us/step - loss: 1.5271 - acc: 0.4509 - val_loss: 1.6163 - val_acc: 0.4335
Epoch 4/90
883083/883083 [==============================] - 38s 43us/step - loss: 1.4884 - acc: 0.4652 - val_loss: 1.5016 - val_acc: 0.4682
Epoch 5/90
883083/883083 [==============================] - 37s 42us/step - loss: 1.4605 - acc: 0.4754 - val_loss: 1.4761 - val_acc: 0.4740
Epoch 6/90
883083/883083 [==============================] - 38s 43us/step - loss: 1.4370 - acc: 0.4839 - val_loss: 1.3884 - val_acc: 0.5025
Epoch 7/90
883083/883083 [==============================] - 38s 43us/step - loss: 1.4169 - acc: 0.4913 - val_loss: 1.3795 - val_acc: 0.5059
Epoch 8/90
883083/883083 [==============================] - 38s 43us/step - loss: 1.3996 - acc: 0.4981 - val_loss: 1.5996 - val_acc: 0.4522
Epoch 9/90
883083/883083 [==============================] - 38s 43us/step - loss: 1.3848 - acc: 0.5037 - val_loss: 1.4223 - val_acc: 0.4947
Epoch 10/90
883083/883083 [==============================] - 38s 43us/step - loss: 1.3708 - acc: 0.5085 - val_loss: 1.3249 - val_acc: 0.5250
Epoch 11/90
883083/883083 [==============================] - 38s 43us/step - loss: 1.3598 - acc: 0.5130 - val_loss: 1.3529 - val_acc: 0.5202
Epoch 12/90
883083/883083 [==============================] - 38s 43us/step - loss: 1.3479 - acc: 0.5172 - val_loss: 1.3633 - val_acc: 0.5148
Epoch 13/90
883083/883083 [==============================] - 38s 43us/step - loss: 1.3375 - acc: 0.5206 - val_loss: 1.4067 - val_acc: 0.5074
Epoch 14/90
883083/883083 [==============================] - 38s 43us/step - loss: 1.3297 - acc: 0.5240 - val_loss: 1.2992 - val_acc: 0.5359
Epoch 15/90
883083/883083 [==============================] - 38s 42us/step - loss: 1.3203 - acc: 0.5279 - val_loss: 1.2870 - val_acc: 0.5398
Epoch 16/90
883083/883083 [==============================] - 38s 43us/step - loss: 1.3127 - acc: 0.5305 - val_loss: 1.2858 - val_acc: 0.5392
Epoch 17/90
883083/883083 [==============================] - 38s 43us/step - loss: 1.3061 - acc: 0.5334 - val_loss: 1.2660 - val_acc: 0.5470
Epoch 18/90
883083/883083 [==============================] - 38s 43us/step - loss: 1.2981 - acc: 0.5354 - val_loss: 1.2600 - val_acc: 0.5495
Epoch 19/90
883083/883083 [==============================] - 38s 43us/step - loss: 1.2921 - acc: 0.5380 - val_loss: 1.2475 - val_acc: 0.5546
Epoch 20/90
883083/883083 [==============================] - 38s 43us/step - loss: 1.2861 - acc: 0.5403 - val_loss: 1.2537 - val_acc: 0.5524
Epoch 21/90
883083/883083 [==============================] - 38s 43us/step - loss: 1.2801 - acc: 0.5421 - val_loss: 1.2390 - val_acc: 0.5571
Epoch 22/90
883083/883083 [==============================] - 38s 43us/step - loss: 1.2755 - acc: 0.5440 - val_loss: 1.2329 - val_acc: 0.5593
Epoch 23/90
883083/883083 [==============================] - 38s 43us/step - loss: 1.2704 - acc: 0.5454 - val_loss: 1.3396 - val_acc: 0.5314
Epoch 24/90
883083/883083 [==============================] - 38s 43us/step - loss: 1.2653 - acc: 0.5481 - val_loss: 1.2536 - val_acc: 0.5530
Epoch 25/90
883083/883083 [==============================] - 38s 43us/step - loss: 1.2606 - acc: 0.5493 - val_loss: 1.2426 - val_acc: 0.5572
Epoch 26/90
883083/883083 [==============================] - 38s 43us/step - loss: 1.2572 - acc: 0.5510 - val_loss: 1.2187 - val_acc: 0.5641
Epoch 27/90
883083/883083 [==============================] - 38s 43us/step - loss: 1.2523 - acc: 0.5528 - val_loss: 1.2336 - val_acc: 0.5597
Epoch 28/90
883083/883083 [==============================] - 38s 43us/step - loss: 1.2484 - acc: 0.5538 - val_loss: 1.2230 - val_acc: 0.5636
Epoch 29/90
883083/883083 [==============================] - 38s 43us/step - loss: 1.2448 - acc: 0.5554 - val_loss: 1.2360 - val_acc: 0.5593
Epoch 30/90
883083/883083 [==============================] - 38s 43us/step - loss: 1.2411 - acc: 0.5565 - val_loss: 1.3635 - val_acc: 0.5313
Epoch 31/90
883083/883083 [==============================] - 38s 43us/step - loss: 1.2379 - acc: 0.5579 - val_loss: 1.2084 - val_acc: 0.5690
Epoch 32/90
883083/883083 [==============================] - 38s 43us/step - loss: 1.2347 - acc: 0.5587 - val_loss: 1.1978 - val_acc: 0.5719
Epoch 33/90
883083/883083 [==============================] - 38s 43us/step - loss: 1.2314 - acc: 0.5596 - val_loss: 1.2491 - val_acc: 0.5581
Epoch 34/90
883083/883083 [==============================] - 38s 43us/step - loss: 1.2285 - acc: 0.5612 - val_loss: 1.1941 - val_acc: 0.5739
Epoch 35/90
883083/883083 [==============================] - 38s 43us/step - loss: 1.2251 - acc: 0.5628 - val_loss: 1.1860 - val_acc: 0.5773
Epoch 36/90
883083/883083 [==============================] - 38s 43us/step - loss: 1.2227 - acc: 0.5631 - val_loss: 1.2018 - val_acc: 0.5719
Epoch 37/90
883083/883083 [==============================] - 38s 43us/step - loss: 1.2193 - acc: 0.5646 - val_loss: 1.1760 - val_acc: 0.5807
Epoch 38/90
883083/883083 [==============================] - 38s 43us/step - loss: 1.2172 - acc: 0.5651 - val_loss: 1.1968 - val_acc: 0.5728
Epoch 39/90
883083/883083 [==============================] - 38s 43us/step - loss: 1.2139 - acc: 0.5659 - val_loss: 1.1696 - val_acc: 0.5833
Epoch 40/90
883083/883083 [==============================] - 38s 43us/step - loss: 1.2120 - acc: 0.5672 - val_loss: 1.1971 - val_acc: 0.5738
Epoch 41/90
883083/883083 [==============================] - 38s 43us/step - loss: 1.2089 - acc: 0.5681 - val_loss: 1.1733 - val_acc: 0.5807
Epoch 42/90
883083/883083 [==============================] - 38s 43us/step - loss: 1.2078 - acc: 0.5687 - val_loss: 1.1649 - val_acc: 0.5848
Epoch 43/90
883083/883083 [==============================] - 38s 43us/step - loss: 1.2046 - acc: 0.5699 - val_loss: 1.1978 - val_acc: 0.5729
Epoch 44/90
883083/883083 [==============================] - 38s 43us/step - loss: 1.2027 - acc: 0.5708 - val_loss: 1.1927 - val_acc: 0.5758
Epoch 45/90
883083/883083 [==============================] - 35s 40us/step - loss: 1.2012 - acc: 0.5712 - val_loss: 1.1711 - val_acc: 0.5833
Epoch 46/90
883083/883083 [==============================] - 36s 41us/step - loss: 1.1991 - acc: 0.5717 - val_loss: 1.1790 - val_acc: 0.5810
Epoch 47/90
883083/883083 [==============================] - 36s 41us/step - loss: 1.1962 - acc: 0.5727 - val_loss: 1.1554 - val_acc: 0.5886
Epoch 48/90
883083/883083 [==============================] - 36s 41us/step - loss: 1.1943 - acc: 0.5737 - val_loss: 1.1528 - val_acc: 0.5894
Epoch 49/90
883083/883083 [==============================] - 38s 43us/step - loss: 1.1925 - acc: 0.5743 - val_loss: 1.2944 - val_acc: 0.5581
Epoch 50/90
883083/883083 [==============================] - 38s 43us/step - loss: 1.1904 - acc: 0.5746 - val_loss: 1.1478 - val_acc: 0.5912
Epoch 51/90
883083/883083 [==============================] - 38s 43us/step - loss: 1.1884 - acc: 0.5758 - val_loss: 1.1494 - val_acc: 0.5906
Epoch 52/90
883083/883083 [==============================] - 38s 43us/step - loss: 1.1870 - acc: 0.5767 - val_loss: 1.1507 - val_acc: 0.5906
Epoch 53/90
883083/883083 [==============================] - 38s 43us/step - loss: 1.1856 - acc: 0.5771 - val_loss: 1.1442 - val_acc: 0.5937
Epoch 54/90
883083/883083 [==============================] - 38s 43us/step - loss: 1.1831 - acc: 0.5774 - val_loss: 1.1427 - val_acc: 0.5928
Epoch 55/90
883083/883083 [==============================] - 38s 43us/step - loss: 1.1814 - acc: 0.5785 - val_loss: 1.1490 - val_acc: 0.5906
Epoch 56/90
883083/883083 [==============================] - 38s 43us/step - loss: 1.1806 - acc: 0.5781 - val_loss: 1.1405 - val_acc: 0.5936
Epoch 57/90
883083/883083 [==============================] - 38s 43us/step - loss: 1.1784 - acc: 0.5793 - val_loss: 1.1375 - val_acc: 0.5951
Epoch 58/90
883083/883083 [==============================] - 38s 43us/step - loss: 1.1773 - acc: 0.5800 - val_loss: 1.1471 - val_acc: 0.5917
Epoch 59/90
883083/883083 [==============================] - 38s 42us/step - loss: 1.1761 - acc: 0.5797 - val_loss: 1.1374 - val_acc: 0.5952
Epoch 60/90
883083/883083 [==============================] - 38s 43us/step - loss: 1.1747 - acc: 0.5809 - val_loss: 1.1458 - val_acc: 0.5925
Epoch 61/90
883083/883083 [==============================] - 38s 43us/step - loss: 1.1726 - acc: 0.5808 - val_loss: 1.1421 - val_acc: 0.5937
Epoch 62/90
883083/883083 [==============================] - 38s 43us/step - loss: 1.1713 - acc: 0.5819 - val_loss: 1.1480 - val_acc: 0.5918
Epoch 63/90
883083/883083 [==============================] - 38s 43us/step - loss: 1.1705 - acc: 0.5820 - val_loss: 1.1321 - val_acc: 0.5968
Epoch 64/90
883083/883083 [==============================] - 38s 43us/step - loss: 1.1689 - acc: 0.5823 - val_loss: 1.1278 - val_acc: 0.5985
Epoch 65/90
883083/883083 [==============================] - 38s 43us/step - loss: 1.1672 - acc: 0.5834 - val_loss: 1.1304 - val_acc: 0.5981
Epoch 66/90
883083/883083 [==============================] - 38s 43us/step - loss: 1.1664 - acc: 0.5839 - val_loss: 1.1286 - val_acc: 0.5984
Epoch 67/90
883083/883083 [==============================] - 38s 43us/step - loss: 1.1645 - acc: 0.5849 - val_loss: 1.1285 - val_acc: 0.5984
Epoch 68/90
883083/883083 [==============================] - 38s 43us/step - loss: 1.1631 - acc: 0.5845 - val_loss: 1.1237 - val_acc: 0.6005
Epoch 69/90
883083/883083 [==============================] - 38s 43us/step - loss: 1.1622 - acc: 0.5851 - val_loss: 1.1261 - val_acc: 0.5989
Epoch 70/90
883083/883083 [==============================] - 38s 43us/step - loss: 1.1613 - acc: 0.5851 - val_loss: 1.1368 - val_acc: 0.5954
Epoch 71/90
883083/883083 [==============================] - 38s 43us/step - loss: 1.1600 - acc: 0.5862 - val_loss: 1.1303 - val_acc: 0.5977
Epoch 72/90
883083/883083 [==============================] - 38s 43us/step - loss: 1.1590 - acc: 0.5860 - val_loss: 1.1234 - val_acc: 0.5998
Epoch 73/90
883083/883083 [==============================] - 38s 43us/step - loss: 1.1579 - acc: 0.5867 - val_loss: 1.1212 - val_acc: 0.6012
Epoch 74/90
883083/883083 [==============================] - 38s 43us/step - loss: 1.1566 - acc: 0.5872 - val_loss: 1.1287 - val_acc: 0.5983
Epoch 75/90
883083/883083 [==============================] - 38s 43us/step - loss: 1.1557 - acc: 0.5875 - val_loss: 1.1232 - val_acc: 0.6003
Epoch 76/90
883083/883083 [==============================] - 38s 43us/step - loss: 1.1544 - acc: 0.5883 - val_loss: 1.1160 - val_acc: 0.6026
Epoch 77/90
883083/883083 [==============================] - 38s 43us/step - loss: 1.1531 - acc: 0.5883 - val_loss: 1.1204 - val_acc: 0.6013
Epoch 78/90
883083/883083 [==============================] - 38s 43us/step - loss: 1.1527 - acc: 0.5884 - val_loss: 1.1197 - val_acc: 0.6020
Epoch 79/90
883083/883083 [==============================] - 38s 43us/step - loss: 1.1514 - acc: 0.5889 - val_loss: 1.1244 - val_acc: 0.6001
Epoch 80/90
883083/883083 [==============================] - 38s 43us/step - loss: 1.1494 - acc: 0.5898 - val_loss: 1.1126 - val_acc: 0.6042
Epoch 81/90
883083/883083 [==============================] - 38s 43us/step - loss: 1.1495 - acc: 0.5899 - val_loss: 1.1369 - val_acc: 0.5952
Epoch 82/90
883083/883083 [==============================] - 38s 43us/step - loss: 1.1480 - acc: 0.5899 - val_loss: 1.1100 - val_acc: 0.6054
Epoch 83/90
883083/883083 [==============================] - 38s 43us/step - loss: 1.1468 - acc: 0.5908 - val_loss: 1.1085 - val_acc: 0.6055
Epoch 84/90
883083/883083 [==============================] - 38s 43us/step - loss: 1.1467 - acc: 0.5913 - val_loss: 1.1075 - val_acc: 0.6062
Epoch 85/90
883083/883083 [==============================] - 38s 43us/step - loss: 1.1458 - acc: 0.5912 - val_loss: 1.1102 - val_acc: 0.6046
Epoch 86/90
883083/883083 [==============================] - 38s 43us/step - loss: 1.1443 - acc: 0.5917 - val_loss: 1.1084 - val_acc: 0.6052
Epoch 87/90
883083/883083 [==============================] - 38s 43us/step - loss: 1.1437 - acc: 0.5919 - val_loss: 1.1616 - val_acc: 0.5898
Epoch 88/90
883083/883083 [==============================] - 38s 43us/step - loss: 1.1432 - acc: 0.5920 - val_loss: 1.1562 - val_acc: 0.5908
Epoch 89/90
883083/883083 [==============================] - 38s 43us/step - loss: 1.1421 - acc: 0.5924 - val_loss: 1.1075 - val_acc: 0.6061
Epoch 90/90
883083/883083 [==============================] - 38s 43us/step - loss: 1.1407 - acc: 0.5930 - val_loss: 1.1179 - val_acc: 0.6025
The accuracy for the segments of this partition is:  0.6024627384546396
The accuracy for this partition is:  0.9033333333333333
[0.92, 0.9133333333333333, 0.9033333333333333]
